^E:\TERRAIN\TERRAIN\SRC\TERRAINCAMERA.CPP
E:\TERRAIN\TERRAIN\DEBUG\TERRAIN.PCH
E:\TERRAIN\TERRAIN\INC\TERRAIN.H
E:\TERRAIN\TERRAIN\INC\TERRAINCAMERA.H
E:\TERRAIN\TERRAIN\INC\CAMERA.H
C:\PROGRAM FILES (X86)\MICROSOFT VISUAL STUDIO\2017\COMMUNITY\VC\TOOLS\MSVC\14.15.26726\INCLUDE\STRING
C:\PROGRAM FILES (X86)\MICROSOFT VISUAL STUDIO\2017\COMMUNITY\VC\TOOLS\MSVC\14.15.26726\INCLUDE\ISTREAM
C:\PROGRAM FILES (X86)\MICROSOFT VISUAL STUDIO\2017\COMMUNITY\VC\TOOLS\MSVC\14.15.26726\INCLUDE\OSTREAM
C:\PROGRAM FILES (X86)\MICROSOFT VISUAL STUDIO\2017\COMMUNITY\VC\TOOLS\MSVC\14.15.26726\INCLUDE\IOS
C:\PROGRAM FILES (X86)\MICROSOFT VISUAL STUDIO\2017\COMMUNITY\VC\TOOLS\MSVC\14.15.26726\INCLUDE\XLOCNUM
C:\PROGRAM FILES (X86)\MICROSOFT VISUAL STUDIO\2017\COMMUNITY\VC\TOOLS\MSVC\14.15.26726\INCLUDE\CLIMITS
C:\PROGRAM FILES (X86)\MICROSOFT VISUAL STUDIO\2017\COMMUNITY\VC\TOOLS\MSVC\14.15.26726\INCLUDE\YVALS.H
C:\PROGRAM FILES (X86)\MICROSOFT VISUAL STUDIO\2017\COMMUNITY\VC\TOOLS\MSVC\14.15.26726\INCLUDE\YVALS_CORE.H
C:\PROGRAM FILES (X86)\MICROSOFT VISUAL STUDIO\2017\COMMUNITY\VC\TOOLS\MSVC\14.15.26726\INCLUDE\XKEYCHECK.H
C:\PROGRAM FILES (X86)\MICROSOFT VISUAL STUDIO\2017\COMMUNITY\VC\TOOLS\MSVC\14.15.26726\INCLUDE\CRTDEFS.H
C:\PROGRAM FILES (X86)\MICROSOFT VISUAL STUDIO\2017\COMMUNITY\VC\TOOLS\MSVC\14.15.26726\INCLUDE\VCRUNTIME.H
C:\PROGRAM FILES (X86)\MICROSOFT VISUAL STUDIO\2017\COMMUNITY\VC\TOOLS\MSVC\14.15.26726\INCLUDE\SAL.H
C:\PROGRAM FILES (X86)\MICROSOFT VISUAL STUDIO\2017\COMMUNITY\VC\TOOLS\MSVC\14.15.26726\INCLUDE\CONCURRENCYSAL.H
C:\PROGRAM FILES (X86)\MICROSOFT VISUAL STUDIO\2017\COMMUNITY\VC\TOOLS\MSVC\14.15.26726\INCLUDE\VADEFS.H
C:\PROGRAM FILES (X86)\WINDOWS KITS\10\INCLUDE\10.0.17134.0\UCRT\CORECRT.H
C:\PROGRAM FILES (X86)\WINDOWS KITS\10\INCLUDE\10.0.17134.0\UCRT\CRTDBG.H
C:\PROGRAM FILES (X86)\MICROSOFT VISUAL STUDIO\2017\COMMUNITY\VC\TOOLS\MSVC\14.15.26726\INCLUDE\VCRUNTIME_NEW_DEBUG.H
C:\PROGRAM FILES (X86)\MICROSOFT VISUAL STUDIO\2017\COMMUNITY\VC\TOOLS\MSVC\14.15.26726\INCLUDE\VCRUNTIME_NEW.H
C:\PROGRAM FILES (X86)\MICROSOFT VISUAL STUDIO\2017\COMMUNITY\VC\TOOLS\MSVC\14.15.26726\INCLUDE\USE_ANSI.H
C:\PROGRAM FILES (X86)\MICROSOFT VISUAL STUDIO\2017\COMMUNITY\VC\TOOLS\MSVC\14.15.26726\INCLUDE\LIMITS.H
C:\PROGRAM FILES (X86)\MICROSOFT VISUAL STUDIO\2017\COMMUNITY\VC\TOOLS\MSVC\14.15.26726\INCLUDE\CMATH
C:\PROGRAM FILES (X86)\MICROSOFT VISUAL STUDIO\2017\COMMUNITY\VC\TOOLS\MSVC\14.15.26726\INCLUDE\CSTDLIB
C:\PROGRAM FILES (X86)\WINDOWS KITS\10\INCLUDE\10.0.17134.0\UCRT\STDLIB.H
C:\PROGRAM FILES (X86)\WINDOWS KITS\10\INCLUDE\10.0.17134.0\UCRT\CORECRT_MALLOC.H
C:\PROGRAM FILES (X86)\WINDOWS KITS\10\INCLUDE\10.0.17134.0\UCRT\CORECRT_SEARCH.H
C:\PROGRAM FILES (X86)\WINDOWS KITS\10\INCLUDE\10.0.17134.0\UCRT\STDDEF.H
C:\PROGRAM FILES (X86)\WINDOWS KITS\10\INCLUDE\10.0.17134.0\UCRT\CORECRT_WSTDLIB.H
C:\PROGRAM FILES (X86)\WINDOWS KITS\10\INCLUDE\10.0.17134.0\UCRT\MATH.H
C:\PROGRAM FILES (X86)\WINDOWS KITS\10\INCLUDE\10.0.17134.0\UCRT\CORECRT_MATH.H
C:\PROGRAM FILES (X86)\MICROSOFT VISUAL STUDIO\2017\COMMUNITY\VC\TOOLS\MSVC\14.15.26726\INCLUDE\XTGMATH.H
C:\PROGRAM FILES (X86)\MICROSOFT VISUAL STUDIO\2017\COMMUNITY\VC\TOOLS\MSVC\14.15.26726\INCLUDE\XTR1COMMON
C:\PROGRAM FILES (X86)\MICROSOFT VISUAL STUDIO\2017\COMMUNITY\VC\TOOLS\MSVC\14.15.26726\INCLUDE\CSTDIO
C:\PROGRAM FILES (X86)\WINDOWS KITS\10\INCLUDE\10.0.17134.0\UCRT\STDIO.H
C:\PROGRAM FILES (X86)\WINDOWS KITS\10\INCLUDE\10.0.17134.0\UCRT\CORECRT_WSTDIO.H
C:\PROGRAM FILES (X86)\WINDOWS KITS\10\INCLUDE\10.0.17134.0\UCRT\CORECRT_STDIO_CONFIG.H
C:\PROGRAM FILES (X86)\MICROSOFT VISUAL STUDIO\2017\COMMUNITY\VC\TOOLS\MSVC\14.15.26726\INCLUDE\STREAMBUF
C:\PROGRAM FILES (X86)\MICROSOFT VISUAL STUDIO\2017\COMMUNITY\VC\TOOLS\MSVC\14.15.26726\INCLUDE\XIOSBASE
C:\PROGRAM FILES (X86)\MICROSOFT VISUAL STUDIO\2017\COMMUNITY\VC\TOOLS\MSVC\14.15.26726\INCLUDE\XLOCALE
C:\PROGRAM FILES (X86)\MICROSOFT VISUAL STUDIO\2017\COMMUNITY\VC\TOOLS\MSVC\14.15.26726\INCLUDE\CSTRING
C:\PROGRAM FILES (X86)\WINDOWS KITS\10\INCLUDE\10.0.17134.0\UCRT\STRING.H
C:\PROGRAM FILES (X86)\WINDOWS KITS\10\INCLUDE\10.0.17134.0\UCRT\CORECRT_MEMORY.H
C:\PROGRAM FILES (X86)\WINDOWS KITS\10\INCLUDE\10.0.17134.0\UCRT\CORECRT_MEMCPY_S.H
C:\PROGRAM FILES (X86)\WINDOWS KITS\10\INCLUDE\10.0.17134.0\UCRT\ERRNO.H
C:\PROGRAM FILES (X86)\MICROSOFT VISUAL STUDIO\2017\COMMUNITY\VC\TOOLS\MSVC\14.15.26726\INCLUDE\VCRUNTIME_STRING.H
C:\PROGRAM FILES (X86)\WINDOWS KITS\10\INCLUDE\10.0.17134.0\UCRT\CORECRT_WSTRING.H
C:\PROGRAM FILES (X86)\MICROSOFT VISUAL STUDIO\2017\COMMUNITY\VC\TOOLS\MSVC\14.15.26726\INCLUDE\STDEXCEPT
C:\PROGRAM FILES (X86)\MICROSOFT VISUAL STUDIO\2017\COMMUNITY\VC\TOOLS\MSVC\14.15.26726\INCLUDE\EXCEPTION
C:\PROGRAM FILES (X86)\MICROSOFT VISUAL STUDIO\2017\COMMUNITY\VC\TOOLS\MSVC\14.15.26726\INCLUDE\TYPE_TRAITS
C:\PROGRAM FILES (X86)\MICROSOFT VISUAL STUDIO\2017\COMMUNITY\VC\TOOLS\MSVC\14.15.26726\INCLUDE\XSTDDEF
C:\PROGRAM FILES (X86)\MICROSOFT VISUAL STUDIO\2017\COMMUNITY\VC\TOOLS\MSVC\14.15.26726\INCLUDE\CSTDDEF
C:\PROGRAM FILES (X86)\MICROSOFT VISUAL STUDIO\2017\COMMUNITY\VC\TOOLS\MSVC\14.15.26726\INCLUDE\INITIALIZER_LIST
C:\PROGRAM FILES (X86)\WINDOWS KITS\10\INCLUDE\10.0.17134.0\UCRT\MALLOC.H
C:\PROGRAM FILES (X86)\MICROSOFT VISUAL STUDIO\2017\COMMUNITY\VC\TOOLS\MSVC\14.15.26726\INCLUDE\VCRUNTIME_EXCEPTION.H
C:\PROGRAM FILES (X86)\MICROSOFT VISUAL STUDIO\2017\COMMUNITY\VC\TOOLS\MSVC\14.15.26726\INCLUDE\EH.H
C:\PROGRAM FILES (X86)\WINDOWS KITS\10\INCLUDE\10.0.17134.0\UCRT\CORECRT_TERMINATE.H
C:\PROGRAM FILES (X86)\MICROSOFT VISUAL STUDIO\2017\COMMUNITY\VC\TOOLS\MSVC\14.15.26726\INCLUDE\XSTRING
C:\PROGRAM FILES (X86)\MICROSOFT VISUAL STUDIO\2017\COMMUNITY\VC\TOOLS\MSVC\14.15.26726\INCLUDE\XMEMORY0
C:\PROGRAM FILES (X86)\MICROSOFT VISUAL STUDIO\2017\COMMUNITY\VC\TOOLS\MSVC\14.15.26726\INCLUDE\CSTDINT
C:\PROGRAM FILES (X86)\MICROSOFT VISUAL STUDIO\2017\COMMUNITY\VC\TOOLS\MSVC\14.15.26726\INCLUDE\STDINT.H
C:\PROGRAM FILES (X86)\MICROSOFT VISUAL STUDIO\2017\COMMUNITY\VC\TOOLS\MSVC\14.15.26726\INCLUDE\LIMITS
C:\PROGRAM FILES (X86)\MICROSOFT VISUAL STUDIO\2017\COMMUNITY\VC\TOOLS\MSVC\14.15.26726\INCLUDE\YMATH.H
C:\PROGRAM FILES (X86)\MICROSOFT VISUAL STUDIO\2017\COMMUNITY\VC\TOOLS\MSVC\14.15.26726\INCLUDE\CFLOAT
C:\PROGRAM FILES (X86)\WINDOWS KITS\10\INCLUDE\10.0.17134.0\UCRT\FLOAT.H
C:\PROGRAM FILES (X86)\MICROSOFT VISUAL STUDIO\2017\COMMUNITY\VC\TOOLS\MSVC\14.15.26726\INCLUDE\CWCHAR
C:\PROGRAM FILES (X86)\WINDOWS KITS\10\INCLUDE\10.0.17134.0\UCRT\WCHAR.H
C:\PROGRAM FILES (X86)\WINDOWS KITS\10\INCLUDE\10.0.17134.0\UCRT\CORECRT_WCONIO.H
C:\PROGRAM FILES (X86)\WINDOWS KITS\10\INCLUDE\10.0.17134.0\UCRT\CORECRT_WCTYPE.H
C:\PROGRAM FILES (X86)\WINDOWS KITS\10\INCLUDE\10.0.17134.0\UCRT\CORECRT_WDIRECT.H
C:\PROGRAM FILES (X86)\WINDOWS KITS\10\INCLUDE\10.0.17134.0\UCRT\CORECRT_WIO.H
C:\PROGRAM FILES (X86)\WINDOWS KITS\10\INCLUDE\10.0.17134.0\UCRT\CORECRT_SHARE.H
C:\PROGRAM FILES (X86)\WINDOWS KITS\10\INCLUDE\10.0.17134.0\UCRT\CORECRT_WPROCESS.H
C:\PROGRAM FILES (X86)\WINDOWS KITS\10\INCLUDE\10.0.17134.0\UCRT\CORECRT_WTIME.H
C:\PROGRAM FILES (X86)\WINDOWS KITS\10\INCLUDE\10.0.17134.0\UCRT\SYS\STAT.H
C:\PROGRAM FILES (X86)\WINDOWS KITS\10\INCLUDE\10.0.17134.0\UCRT\SYS\TYPES.H
C:\PROGRAM FILES (X86)\MICROSOFT VISUAL STUDIO\2017\COMMUNITY\VC\TOOLS\MSVC\14.15.26726\INCLUDE\NEW
C:\PROGRAM FILES (X86)\MICROSOFT VISUAL STUDIO\2017\COMMUNITY\VC\TOOLS\MSVC\14.15.26726\INCLUDE\XUTILITY
C:\PROGRAM FILES (X86)\MICROSOFT VISUAL STUDIO\2017\COMMUNITY\VC\TOOLS\MSVC\14.15.26726\INCLUDE\UTILITY
C:\PROGRAM FILES (X86)\MICROSOFT VISUAL STUDIO\2017\COMMUNITY\VC\TOOLS\MSVC\14.15.26726\INCLUDE\IOSFWD
C:\PROGRAM FILES (X86)\MICROSOFT VISUAL STUDIO\2017\COMMUNITY\VC\TOOLS\MSVC\14.15.26726\INCLUDE\XATOMIC0.H
C:\PROGRAM FILES (X86)\MICROSOFT VISUAL STUDIO\2017\COMMUNITY\VC\TOOLS\MSVC\14.15.26726\INCLUDE\INTRIN0.H
C:\PROGRAM FILES (X86)\MICROSOFT VISUAL STUDIO\2017\COMMUNITY\VC\TOOLS\MSVC\14.15.26726\INCLUDE\TYPEINFO
C:\PROGRAM FILES (X86)\MICROSOFT VISUAL STUDIO\2017\COMMUNITY\VC\TOOLS\MSVC\14.15.26726\INCLUDE\VCRUNTIME_TYPEINFO.H
C:\PROGRAM FILES (X86)\MICROSOFT VISUAL STUDIO\2017\COMMUNITY\VC\TOOLS\MSVC\14.15.26726\INCLUDE\XLOCINFO
C:\PROGRAM FILES (X86)\MICROSOFT VISUAL STUDIO\2017\COMMUNITY\VC\TOOLS\MSVC\14.15.26726\INCLUDE\XLOCINFO.H
C:\PROGRAM FILES (X86)\WINDOWS KITS\10\INCLUDE\10.0.17134.0\UCRT\CTYPE.H
C:\PROGRAM FILES (X86)\WINDOWS KITS\10\INCLUDE\10.0.17134.0\UCRT\LOCALE.H
C:\PROGRAM FILES (X86)\MICROSOFT VISUAL STUDIO\2017\COMMUNITY\VC\TOOLS\MSVC\14.15.26726\INCLUDE\MEMORY
C:\PROGRAM FILES (X86)\MICROSOFT VISUAL STUDIO\2017\COMMUNITY\VC\TOOLS\MSVC\14.15.26726\INCLUDE\XMEMORY
C:\PROGRAM FILES (X86)\MICROSOFT VISUAL STUDIO\2017\COMMUNITY\VC\TOOLS\MSVC\14.15.26726\INCLUDE\XFACET
C:\PROGRAM FILES (X86)\MICROSOFT VISUAL STUDIO\2017\COMMUNITY\VC\TOOLS\MSVC\14.15.26726\INCLUDE\SYSTEM_ERROR
C:\PROGRAM FILES (X86)\MICROSOFT VISUAL STUDIO\2017\COMMUNITY\VC\TOOLS\MSVC\14.15.26726\INCLUDE\CERRNO
C:\PROGRAM FILES (X86)\MICROSOFT VISUAL STUDIO\2017\COMMUNITY\VC\TOOLS\MSVC\14.15.26726\INCLUDE\XCALL_ONCE.H
C:\PROGRAM FILES (X86)\MICROSOFT VISUAL STUDIO\2017\COMMUNITY\VC\TOOLS\MSVC\14.15.26726\INCLUDE\XERRC.H
C:\PROGRAM FILES (X86)\WINDOWS KITS\10\INCLUDE\10.0.17134.0\UCRT\SHARE.H
C:\PROGRAM FILES (X86)\MICROSOFT VISUAL STUDIO\2017\COMMUNITY\VC\TOOLS\MSVC\14.15.26726\INCLUDE\XSTRING_INSERT.H
C:\PROGRAM FILES (X86)\MICROSOFT VISUAL STUDIO\2017\COMMUNITY\VC\TOOLS\MSVC\14.15.26726\INCLUDE\VECTOR
E:\TERRAIN\EXTERNALS\GLM-0.9.1\GLM\GTC\QUATERNION.HPP
E:\TERRAIN\EXTERNALS\GLM-0.9.1\GLM\GLM.HPP
E:\TERRAIN\EXTERNALS\GLM-0.9.1\GLM\CORE\_FIXES.HPP
E:\TERRAIN\EXTERNALS\GLM-0.9.1\GLM\CORE\SETUP.HPP
E:\TERRAIN\EXTERNALS\GLM-0.9.1\GLM\CORE\_DETAIL.HPP
C:\PROGRAM FILES (X86)\MICROSOFT VISUAL STUDIO\2017\COMMUNITY\VC\TOOLS\MSVC\14.15.26726\INCLUDE\CASSERT
C:\PROGRAM FILES (X86)\WINDOWS KITS\10\INCLUDE\10.0.17134.0\UCRT\ASSERT.H
E:\TERRAIN\EXTERNALS\GLM-0.9.1\GLM\CORE\TYPE.HPP
E:\TERRAIN\EXTERNALS\GLM-0.9.1\GLM\CORE\TYPE_HALF.HPP
E:\TERRAIN\EXTERNALS\GLM-0.9.1\GLM\CORE\TYPE_HALF.INL
E:\TERRAIN\EXTERNALS\GLM-0.9.1\GLM\CORE\TYPE_FLOAT.HPP
E:\TERRAIN\EXTERNALS\GLM-0.9.1\GLM\CORE\TYPE_INT.HPP
E:\TERRAIN\EXTERNALS\GLM-0.9.1\GLM\CORE\TYPE_GENTYPE.HPP
E:\TERRAIN\EXTERNALS\GLM-0.9.1\GLM\CORE\TYPE_SIZE.HPP
E:\TERRAIN\EXTERNALS\GLM-0.9.1\GLM\CORE\TYPE_VEC1.HPP
E:\TERRAIN\EXTERNALS\GLM-0.9.1\GLM\CORE\TYPE_VEC.HPP
E:\TERRAIN\EXTERNALS\GLM-0.9.1\GLM\CORE\_SWIZZLE.HPP
E:\TERRAIN\EXTERNALS\GLM-0.9.1\GLM\CORE\TYPE_VEC1.INL
E:\TERRAIN\EXTERNALS\GLM-0.9.1\GLM\CORE\TYPE_VEC2.HPP
E:\TERRAIN\EXTERNALS\GLM-0.9.1\GLM\CORE\TYPE_VEC2.INL
E:\TERRAIN\EXTERNALS\GLM-0.9.1\GLM\CORE\TYPE_VEC3.HPP
E:\TERRAIN\EXTERNALS\GLM-0.9.1\GLM\CORE\TYPE_VEC3.INL
E:\TERRAIN\EXTERNALS\GLM-0.9.1\GLM\CORE\TYPE_VEC4.HPP
E:\TERRAIN\EXTERNALS\GLM-0.9.1\GLM\CORE\TYPE_VEC4.INL
E:\TERRAIN\EXTERNALS\GLM-0.9.1\GLM\CORE\TYPE_MAT2X2.HPP
E:\TERRAIN\EXTERNALS\GLM-0.9.1\GLM\CORE\TYPE_MAT.HPP
E:\TERRAIN\EXTERNALS\GLM-0.9.1\GLM\CORE\TYPE_MAT2X2.INL
E:\TERRAIN\EXTERNALS\GLM-0.9.1\GLM\CORE\TYPE_MAT2X3.HPP
E:\TERRAIN\EXTERNALS\GLM-0.9.1\GLM\CORE\TYPE_MAT2X3.INL
E:\TERRAIN\EXTERNALS\GLM-0.9.1\GLM\CORE\TYPE_MAT2X4.HPP
E:\TERRAIN\EXTERNALS\GLM-0.9.1\GLM\CORE\TYPE_MAT2X4.INL
E:\TERRAIN\EXTERNALS\GLM-0.9.1\GLM\CORE\TYPE_MAT3X2.HPP
E:\TERRAIN\EXTERNALS\GLM-0.9.1\GLM\CORE\TYPE_MAT3X2.INL
E:\TERRAIN\EXTERNALS\GLM-0.9.1\GLM\CORE\TYPE_MAT3X3.HPP
E:\TERRAIN\EXTERNALS\GLM-0.9.1\GLM\CORE\TYPE_MAT3X3.INL
E:\TERRAIN\EXTERNALS\GLM-0.9.1\GLM\CORE\TYPE_MAT3X4.HPP
E:\TERRAIN\EXTERNALS\GLM-0.9.1\GLM\CORE\TYPE_MAT3X4.INL
E:\TERRAIN\EXTERNALS\GLM-0.9.1\GLM\CORE\TYPE_MAT4X2.HPP
E:\TERRAIN\EXTERNALS\GLM-0.9.1\GLM\CORE\TYPE_MAT4X2.INL
E:\TERRAIN\EXTERNALS\GLM-0.9.1\GLM\CORE\TYPE_MAT4X3.HPP
E:\TERRAIN\EXTERNALS\GLM-0.9.1\GLM\CORE\TYPE_MAT4X3.INL
E:\TERRAIN\EXTERNALS\GLM-0.9.1\GLM\CORE\TYPE_MAT4X4.HPP
E:\TERRAIN\EXTERNALS\GLM-0.9.1\GLM\CORE\TYPE_MAT4X4.INL
E:\TERRAIN\EXTERNALS\GLM-0.9.1\GLM\CORE\FUNC_TRIGONOMETRIC.HPP
E:\TERRAIN\EXTERNALS\GLM-0.9.1\GLM\CORE\FUNC_TRIGONOMETRIC.INL
E:\TERRAIN\EXTERNALS\GLM-0.9.1\GLM\CORE\FUNC_EXPONENTIAL.HPP
E:\TERRAIN\EXTERNALS\GLM-0.9.1\GLM\CORE\FUNC_EXPONENTIAL.INL
E:\TERRAIN\EXTERNALS\GLM-0.9.1\GLM\CORE\FUNC_COMMON.HPP
E:\TERRAIN\EXTERNALS\GLM-0.9.1\GLM\CORE\FUNC_COMMON.INL
E:\TERRAIN\EXTERNALS\GLM-0.9.1\GLM\CORE\FUNC_PACKING.HPP
E:\TERRAIN\EXTERNALS\GLM-0.9.1\GLM\CORE\FUNC_PACKING.INL
E:\TERRAIN\EXTERNALS\GLM-0.9.1\GLM\CORE\FUNC_GEOMETRIC.HPP
E:\TERRAIN\EXTERNALS\GLM-0.9.1\GLM\CORE\FUNC_GEOMETRIC.INL
E:\TERRAIN\EXTERNALS\GLM-0.9.1\GLM\CORE\FUNC_MATRIX.HPP
E:\TERRAIN\EXTERNALS\GLM-0.9.1\GLM\CORE\FUNC_MATRIX.INL
E:\TERRAIN\EXTERNALS\GLM-0.9.1\GLM\CORE\FUNC_VECTOR_RELATIONAL.HPP
E:\TERRAIN\EXTERNALS\GLM-0.9.1\GLM\CORE\FUNC_VECTOR_RELATIONAL.INL
E:\TERRAIN\EXTERNALS\GLM-0.9.1\GLM\CORE\FUNC_INTEGER.HPP
E:\TERRAIN\EXTERNALS\GLM-0.9.1\GLM\CORE\FUNC_INTEGER.INL
E:\TERRAIN\EXTERNALS\GLM-0.9.1\GLM\CORE\FUNC_NOISE.HPP
E:\TERRAIN\EXTERNALS\GLM-0.9.1\GLM\CORE\FUNC_NOISE.INL
E:\TERRAIN\EXTERNALS\GLM-0.9.1\GLM\GTC\HALF_FLOAT.HPP
E:\TERRAIN\EXTERNALS\GLM-0.9.1\GLM\GTC\HALF_FLOAT.INL
E:\TERRAIN\EXTERNALS\GLM-0.9.1\GLM\GTC\QUATERNION.INL
E:\TERRAIN\EXTERNALS\GLM-0.9.1\GLM\GTX\STD_BASED_TYPE.HPP
E:\TERRAIN\EXTERNALS\GLM-0.9.1\GLM\GTX\STD_BASED_TYPE.INL
E:\TERRAIN\EXTERNALS\GLEW-1.5.8\INCLUDE\GL\GLEW.H
C:\PROGRAM FILES (X86)\WINDOWS KITS\10\INCLUDE\10.0.17134.0\UM\GL\GLU.H
C:\PROGRAM FILES (X86)\WINDOWS KITS\10\INCLUDE\10.0.17134.0\SHARED\WINAPIFAMILY.H
C:\PROGRAM FILES (X86)\WINDOWS KITS\10\INCLUDE\10.0.17134.0\SHARED\WINPACKAGEFAMILY.H
C:\PROGRAM FILES (X86)\WINDOWS KITS\10\INCLUDE\10.0.17134.0\UM\GL\GL.H
E:\TERRAIN\EXTERNALS\GLM-0.9.1\GLM\GTC\MATRIX_TRANSFORM.HPP
E:\TERRAIN\EXTERNALS\GLM-0.9.1\GLM\GTC\MATRIX_TRANSFORM.INL
C:\PROGRAM FILES (X86)\MICROSOFT VISUAL STUDIO\2017\COMMUNITY\VC\TOOLS\MSVC\14.15.26726\BIN\HOSTX86\X86\1033\CLUI.DLL
C:\WINDOWS\GLOBALIZATION\SORTING\SORTDEFAULT.NLS
C:\WINDOWS\SYSTEM32\RSAENH.DLL
C:\WINDOWS\SYSTEM32\TZRES.DLL
^E:\TERRAIN\TERRAIN\SRC\TERRAIN.CPP
E:\TERRAIN\TERRAIN\DEBUG\TERRAIN.PCH
E:\TERRAIN\TERRAIN\INC\TERRAIN.H
C:\PROGRAM FILES (X86)\MICROSOFT VISUAL STUDIO\2017\COMMUNITY\VC\TOOLS\MSVC\14.15.26726\BIN\HOSTX86\X86\1033\CLUI.DLL
C:\WINDOWS\GLOBALIZATION\SORTING\SORTDEFAULT.NLS
C:\WINDOWS\SYSTEM32\RSAENH.DLL
C:\WINDOWS\SYSTEM32\TZRES.DLL
C:\PROGRAM FILES (X86)\MICROSOFT VISUAL STUDIO\2017\COMMUNITY\VC\TOOLS\MSVC\14.15.26726\INCLUDE\STRING
C:\PROGRAM FILES (X86)\MICROSOFT VISUAL STUDIO\2017\COMMUNITY\VC\TOOLS\MSVC\14.15.26726\INCLUDE\ISTREAM
C:\PROGRAM FILES (X86)\MICROSOFT VISUAL STUDIO\2017\COMMUNITY\VC\TOOLS\MSVC\14.15.26726\INCLUDE\OSTREAM
C:\PROGRAM FILES (X86)\MICROSOFT VISUAL STUDIO\2017\COMMUNITY\VC\TOOLS\MSVC\14.15.26726\INCLUDE\IOS
C:\PROGRAM FILES (X86)\MICROSOFT VISUAL STUDIO\2017\COMMUNITY\VC\TOOLS\MSVC\14.15.26726\INCLUDE\XLOCNUM
C:\PROGRAM FILES (X86)\MICROSOFT VISUAL STUDIO\2017\COMMUNITY\VC\TOOLS\MSVC\14.15.26726\INCLUDE\CLIMITS
C:\PROGRAM FILES (X86)\MICROSOFT VISUAL STUDIO\2017\COMMUNITY\VC\TOOLS\MSVC\14.15.26726\INCLUDE\YVALS.H
C:\PROGRAM FILES (X86)\MICROSOFT VISUAL STUDIO\2017\COMMUNITY\VC\TOOLS\MSVC\14.15.26726\INCLUDE\YVALS_CORE.H
C:\PROGRAM FILES (X86)\MICROSOFT VISUAL STUDIO\2017\COMMUNITY\VC\TOOLS\MSVC\14.15.26726\INCLUDE\XKEYCHECK.H
C:\PROGRAM FILES (X86)\MICROSOFT VISUAL STUDIO\2017\COMMUNITY\VC\TOOLS\MSVC\14.15.26726\INCLUDE\CRTDEFS.H
C:\PROGRAM FILES (X86)\MICROSOFT VISUAL STUDIO\2017\COMMUNITY\VC\TOOLS\MSVC\14.15.26726\INCLUDE\VCRUNTIME.H
C:\PROGRAM FILES (X86)\MICROSOFT VISUAL STUDIO\2017\COMMUNITY\VC\TOOLS\MSVC\14.15.26726\INCLUDE\SAL.H
C:\PROGRAM FILES (X86)\MICROSOFT VISUAL STUDIO\2017\COMMUNITY\VC\TOOLS\MSVC\14.15.26726\INCLUDE\CONCURRENCYSAL.H
C:\PROGRAM FILES (X86)\MICROSOFT VISUAL STUDIO\2017\COMMUNITY\VC\TOOLS\MSVC\14.15.26726\INCLUDE\VADEFS.H
C:\PROGRAM FILES (X86)\WINDOWS KITS\10\INCLUDE\10.0.17134.0\UCRT\CORECRT.H
C:\PROGRAM FILES (X86)\WINDOWS KITS\10\INCLUDE\10.0.17134.0\UCRT\CRTDBG.H
C:\PROGRAM FILES (X86)\MICROSOFT VISUAL STUDIO\2017\COMMUNITY\VC\TOOLS\MSVC\14.15.26726\INCLUDE\VCRUNTIME_NEW_DEBUG.H
C:\PROGRAM FILES (X86)\MICROSOFT VISUAL STUDIO\2017\COMMUNITY\VC\TOOLS\MSVC\14.15.26726\INCLUDE\VCRUNTIME_NEW.H
C:\PROGRAM FILES (X86)\MICROSOFT VISUAL STUDIO\2017\COMMUNITY\VC\TOOLS\MSVC\14.15.26726\INCLUDE\USE_ANSI.H
C:\PROGRAM FILES (X86)\MICROSOFT VISUAL STUDIO\2017\COMMUNITY\VC\TOOLS\MSVC\14.15.26726\INCLUDE\LIMITS.H
C:\PROGRAM FILES (X86)\MICROSOFT VISUAL STUDIO\2017\COMMUNITY\VC\TOOLS\MSVC\14.15.26726\INCLUDE\CMATH
C:\PROGRAM FILES (X86)\MICROSOFT VISUAL STUDIO\2017\COMMUNITY\VC\TOOLS\MSVC\14.15.26726\INCLUDE\CSTDLIB
C:\PROGRAM FILES (X86)\WINDOWS KITS\10\INCLUDE\10.0.17134.0\UCRT\STDLIB.H
C:\PROGRAM FILES (X86)\WINDOWS KITS\10\INCLUDE\10.0.17134.0\UCRT\CORECRT_MALLOC.H
C:\PROGRAM FILES (X86)\WINDOWS KITS\10\INCLUDE\10.0.17134.0\UCRT\CORECRT_SEARCH.H
C:\PROGRAM FILES (X86)\WINDOWS KITS\10\INCLUDE\10.0.17134.0\UCRT\STDDEF.H
C:\PROGRAM FILES (X86)\WINDOWS KITS\10\INCLUDE\10.0.17134.0\UCRT\CORECRT_WSTDLIB.H
C:\PROGRAM FILES (X86)\WINDOWS KITS\10\INCLUDE\10.0.17134.0\UCRT\MATH.H
C:\PROGRAM FILES (X86)\WINDOWS KITS\10\INCLUDE\10.0.17134.0\UCRT\CORECRT_MATH.H
C:\PROGRAM FILES (X86)\MICROSOFT VISUAL STUDIO\2017\COMMUNITY\VC\TOOLS\MSVC\14.15.26726\INCLUDE\XTGMATH.H
C:\PROGRAM FILES (X86)\MICROSOFT VISUAL STUDIO\2017\COMMUNITY\VC\TOOLS\MSVC\14.15.26726\INCLUDE\XTR1COMMON
C:\PROGRAM FILES (X86)\MICROSOFT VISUAL STUDIO\2017\COMMUNITY\VC\TOOLS\MSVC\14.15.26726\INCLUDE\CSTDIO
C:\PROGRAM FILES (X86)\WINDOWS KITS\10\INCLUDE\10.0.17134.0\UCRT\STDIO.H
C:\PROGRAM FILES (X86)\WINDOWS KITS\10\INCLUDE\10.0.17134.0\UCRT\CORECRT_WSTDIO.H
C:\PROGRAM FILES (X86)\WINDOWS KITS\10\INCLUDE\10.0.17134.0\UCRT\CORECRT_STDIO_CONFIG.H
C:\PROGRAM FILES (X86)\MICROSOFT VISUAL STUDIO\2017\COMMUNITY\VC\TOOLS\MSVC\14.15.26726\INCLUDE\STREAMBUF
C:\PROGRAM FILES (X86)\MICROSOFT VISUAL STUDIO\2017\COMMUNITY\VC\TOOLS\MSVC\14.15.26726\INCLUDE\XIOSBASE
C:\PROGRAM FILES (X86)\MICROSOFT VISUAL STUDIO\2017\COMMUNITY\VC\TOOLS\MSVC\14.15.26726\INCLUDE\XLOCALE
C:\PROGRAM FILES (X86)\MICROSOFT VISUAL STUDIO\2017\COMMUNITY\VC\TOOLS\MSVC\14.15.26726\INCLUDE\CSTRING
C:\PROGRAM FILES (X86)\WINDOWS KITS\10\INCLUDE\10.0.17134.0\UCRT\STRING.H
C:\PROGRAM FILES (X86)\WINDOWS KITS\10\INCLUDE\10.0.17134.0\UCRT\CORECRT_MEMORY.H
C:\PROGRAM FILES (X86)\WINDOWS KITS\10\INCLUDE\10.0.17134.0\UCRT\CORECRT_MEMCPY_S.H
C:\PROGRAM FILES (X86)\WINDOWS KITS\10\INCLUDE\10.0.17134.0\UCRT\ERRNO.H
C:\PROGRAM FILES (X86)\MICROSOFT VISUAL STUDIO\2017\COMMUNITY\VC\TOOLS\MSVC\14.15.26726\INCLUDE\VCRUNTIME_STRING.H
C:\PROGRAM FILES (X86)\WINDOWS KITS\10\INCLUDE\10.0.17134.0\UCRT\CORECRT_WSTRING.H
C:\PROGRAM FILES (X86)\MICROSOFT VISUAL STUDIO\2017\COMMUNITY\VC\TOOLS\MSVC\14.15.26726\INCLUDE\STDEXCEPT
C:\PROGRAM FILES (X86)\MICROSOFT VISUAL STUDIO\2017\COMMUNITY\VC\TOOLS\MSVC\14.15.26726\INCLUDE\EXCEPTION
C:\PROGRAM FILES (X86)\MICROSOFT VISUAL STUDIO\2017\COMMUNITY\VC\TOOLS\MSVC\14.15.26726\INCLUDE\TYPE_TRAITS
C:\PROGRAM FILES (X86)\MICROSOFT VISUAL STUDIO\2017\COMMUNITY\VC\TOOLS\MSVC\14.15.26726\INCLUDE\XSTDDEF
C:\PROGRAM FILES (X86)\MICROSOFT VISUAL STUDIO\2017\COMMUNITY\VC\TOOLS\MSVC\14.15.26726\INCLUDE\CSTDDEF
C:\PROGRAM FILES (X86)\MICROSOFT VISUAL STUDIO\2017\COMMUNITY\VC\TOOLS\MSVC\14.15.26726\INCLUDE\INITIALIZER_LIST
C:\PROGRAM FILES (X86)\WINDOWS KITS\10\INCLUDE\10.0.17134.0\UCRT\MALLOC.H
C:\PROGRAM FILES (X86)\MICROSOFT VISUAL STUDIO\2017\COMMUNITY\VC\TOOLS\MSVC\14.15.26726\INCLUDE\VCRUNTIME_EXCEPTION.H
C:\PROGRAM FILES (X86)\MICROSOFT VISUAL STUDIO\2017\COMMUNITY\VC\TOOLS\MSVC\14.15.26726\INCLUDE\EH.H
C:\PROGRAM FILES (X86)\WINDOWS KITS\10\INCLUDE\10.0.17134.0\UCRT\CORECRT_TERMINATE.H
C:\PROGRAM FILES (X86)\MICROSOFT VISUAL STUDIO\2017\COMMUNITY\VC\TOOLS\MSVC\14.15.26726\INCLUDE\XSTRING
C:\PROGRAM FILES (X86)\MICROSOFT VISUAL STUDIO\2017\COMMUNITY\VC\TOOLS\MSVC\14.15.26726\INCLUDE\XMEMORY0
C:\PROGRAM FILES (X86)\MICROSOFT VISUAL STUDIO\2017\COMMUNITY\VC\TOOLS\MSVC\14.15.26726\INCLUDE\CSTDINT
C:\PROGRAM FILES (X86)\MICROSOFT VISUAL STUDIO\2017\COMMUNITY\VC\TOOLS\MSVC\14.15.26726\INCLUDE\STDINT.H
C:\PROGRAM FILES (X86)\MICROSOFT VISUAL STUDIO\2017\COMMUNITY\VC\TOOLS\MSVC\14.15.26726\INCLUDE\LIMITS
C:\PROGRAM FILES (X86)\MICROSOFT VISUAL STUDIO\2017\COMMUNITY\VC\TOOLS\MSVC\14.15.26726\INCLUDE\YMATH.H
C:\PROGRAM FILES (X86)\MICROSOFT VISUAL STUDIO\2017\COMMUNITY\VC\TOOLS\MSVC\14.15.26726\INCLUDE\CFLOAT
C:\PROGRAM FILES (X86)\WINDOWS KITS\10\INCLUDE\10.0.17134.0\UCRT\FLOAT.H
C:\PROGRAM FILES (X86)\MICROSOFT VISUAL STUDIO\2017\COMMUNITY\VC\TOOLS\MSVC\14.15.26726\INCLUDE\CWCHAR
C:\PROGRAM FILES (X86)\WINDOWS KITS\10\INCLUDE\10.0.17134.0\UCRT\WCHAR.H
C:\PROGRAM FILES (X86)\WINDOWS KITS\10\INCLUDE\10.0.17134.0\UCRT\CORECRT_WCONIO.H
C:\PROGRAM FILES (X86)\WINDOWS KITS\10\INCLUDE\10.0.17134.0\UCRT\CORECRT_WCTYPE.H
C:\PROGRAM FILES (X86)\WINDOWS KITS\10\INCLUDE\10.0.17134.0\UCRT\CORECRT_WDIRECT.H
C:\PROGRAM FILES (X86)\WINDOWS KITS\10\INCLUDE\10.0.17134.0\UCRT\CORECRT_WIO.H
C:\PROGRAM FILES (X86)\WINDOWS KITS\10\INCLUDE\10.0.17134.0\UCRT\CORECRT_SHARE.H
C:\PROGRAM FILES (X86)\WINDOWS KITS\10\INCLUDE\10.0.17134.0\UCRT\CORECRT_WPROCESS.H
C:\PROGRAM FILES (X86)\WINDOWS KITS\10\INCLUDE\10.0.17134.0\UCRT\CORECRT_WTIME.H
C:\PROGRAM FILES (X86)\WINDOWS KITS\10\INCLUDE\10.0.17134.0\UCRT\SYS\STAT.H
C:\PROGRAM FILES (X86)\WINDOWS KITS\10\INCLUDE\10.0.17134.0\UCRT\SYS\TYPES.H
C:\PROGRAM FILES (X86)\MICROSOFT VISUAL STUDIO\2017\COMMUNITY\VC\TOOLS\MSVC\14.15.26726\INCLUDE\NEW
C:\PROGRAM FILES (X86)\MICROSOFT VISUAL STUDIO\2017\COMMUNITY\VC\TOOLS\MSVC\14.15.26726\INCLUDE\XUTILITY
C:\PROGRAM FILES (X86)\MICROSOFT VISUAL STUDIO\2017\COMMUNITY\VC\TOOLS\MSVC\14.15.26726\INCLUDE\UTILITY
C:\PROGRAM FILES (X86)\MICROSOFT VISUAL STUDIO\2017\COMMUNITY\VC\TOOLS\MSVC\14.15.26726\INCLUDE\IOSFWD
C:\PROGRAM FILES (X86)\MICROSOFT VISUAL STUDIO\2017\COMMUNITY\VC\TOOLS\MSVC\14.15.26726\INCLUDE\XATOMIC0.H
C:\PROGRAM FILES (X86)\MICROSOFT VISUAL STUDIO\2017\COMMUNITY\VC\TOOLS\MSVC\14.15.26726\INCLUDE\INTRIN0.H
C:\PROGRAM FILES (X86)\MICROSOFT VISUAL STUDIO\2017\COMMUNITY\VC\TOOLS\MSVC\14.15.26726\INCLUDE\TYPEINFO
C:\PROGRAM FILES (X86)\MICROSOFT VISUAL STUDIO\2017\COMMUNITY\VC\TOOLS\MSVC\14.15.26726\INCLUDE\VCRUNTIME_TYPEINFO.H
C:\PROGRAM FILES (X86)\MICROSOFT VISUAL STUDIO\2017\COMMUNITY\VC\TOOLS\MSVC\14.15.26726\INCLUDE\XLOCINFO
C:\PROGRAM FILES (X86)\MICROSOFT VISUAL STUDIO\2017\COMMUNITY\VC\TOOLS\MSVC\14.15.26726\INCLUDE\XLOCINFO.H
C:\PROGRAM FILES (X86)\WINDOWS KITS\10\INCLUDE\10.0.17134.0\UCRT\CTYPE.H
C:\PROGRAM FILES (X86)\WINDOWS KITS\10\INCLUDE\10.0.17134.0\UCRT\LOCALE.H
C:\PROGRAM FILES (X86)\MICROSOFT VISUAL STUDIO\2017\COMMUNITY\VC\TOOLS\MSVC\14.15.26726\INCLUDE\MEMORY
C:\PROGRAM FILES (X86)\MICROSOFT VISUAL STUDIO\2017\COMMUNITY\VC\TOOLS\MSVC\14.15.26726\INCLUDE\XMEMORY
C:\PROGRAM FILES (X86)\MICROSOFT VISUAL STUDIO\2017\COMMUNITY\VC\TOOLS\MSVC\14.15.26726\INCLUDE\XFACET
C:\PROGRAM FILES (X86)\MICROSOFT VISUAL STUDIO\2017\COMMUNITY\VC\TOOLS\MSVC\14.15.26726\INCLUDE\SYSTEM_ERROR
C:\PROGRAM FILES (X86)\MICROSOFT VISUAL STUDIO\2017\COMMUNITY\VC\TOOLS\MSVC\14.15.26726\INCLUDE\CERRNO
C:\PROGRAM FILES (X86)\MICROSOFT VISUAL STUDIO\2017\COMMUNITY\VC\TOOLS\MSVC\14.15.26726\INCLUDE\XCALL_ONCE.H
C:\PROGRAM FILES (X86)\MICROSOFT VISUAL STUDIO\2017\COMMUNITY\VC\TOOLS\MSVC\14.15.26726\INCLUDE\XERRC.H
C:\PROGRAM FILES (X86)\WINDOWS KITS\10\INCLUDE\10.0.17134.0\UCRT\SHARE.H
C:\PROGRAM FILES (X86)\MICROSOFT VISUAL STUDIO\2017\COMMUNITY\VC\TOOLS\MSVC\14.15.26726\INCLUDE\XSTRING_INSERT.H
C:\PROGRAM FILES (X86)\MICROSOFT VISUAL STUDIO\2017\COMMUNITY\VC\TOOLS\MSVC\14.15.26726\INCLUDE\VECTOR
E:\TERRAIN\EXTERNALS\GLM-0.9.1\GLM\GLM.HPP
E:\TERRAIN\EXTERNALS\GLM-0.9.1\GLM\CORE\_FIXES.HPP
E:\TERRAIN\EXTERNALS\GLM-0.9.1\GLM\CORE\SETUP.HPP
E:\TERRAIN\EXTERNALS\GLM-0.9.1\GLM\CORE\_DETAIL.HPP
C:\PROGRAM FILES (X86)\MICROSOFT VISUAL STUDIO\2017\COMMUNITY\VC\TOOLS\MSVC\14.15.26726\INCLUDE\CASSERT
C:\PROGRAM FILES (X86)\WINDOWS KITS\10\INCLUDE\10.0.17134.0\UCRT\ASSERT.H
E:\TERRAIN\EXTERNALS\GLM-0.9.1\GLM\CORE\TYPE.HPP
E:\TERRAIN\EXTERNALS\GLM-0.9.1\GLM\CORE\TYPE_HALF.HPP
E:\TERRAIN\EXTERNALS\GLM-0.9.1\GLM\CORE\TYPE_HALF.INL
E:\TERRAIN\EXTERNALS\GLM-0.9.1\GLM\CORE\TYPE_FLOAT.HPP
E:\TERRAIN\EXTERNALS\GLM-0.9.1\GLM\CORE\TYPE_INT.HPP
E:\TERRAIN\EXTERNALS\GLM-0.9.1\GLM\CORE\TYPE_GENTYPE.HPP
E:\TERRAIN\EXTERNALS\GLM-0.9.1\GLM\CORE\TYPE_SIZE.HPP
E:\TERRAIN\EXTERNALS\GLM-0.9.1\GLM\CORE\TYPE_VEC1.HPP
E:\TERRAIN\EXTERNALS\GLM-0.9.1\GLM\CORE\TYPE_VEC.HPP
E:\TERRAIN\EXTERNALS\GLM-0.9.1\GLM\CORE\_SWIZZLE.HPP
E:\TERRAIN\EXTERNALS\GLM-0.9.1\GLM\CORE\TYPE_VEC1.INL
E:\TERRAIN\EXTERNALS\GLM-0.9.1\GLM\CORE\TYPE_VEC2.HPP
E:\TERRAIN\EXTERNALS\GLM-0.9.1\GLM\CORE\TYPE_VEC2.INL
E:\TERRAIN\EXTERNALS\GLM-0.9.1\GLM\CORE\TYPE_VEC3.HPP
E:\TERRAIN\EXTERNALS\GLM-0.9.1\GLM\CORE\TYPE_VEC3.INL
E:\TERRAIN\EXTERNALS\GLM-0.9.1\GLM\CORE\TYPE_VEC4.HPP
E:\TERRAIN\EXTERNALS\GLM-0.9.1\GLM\CORE\TYPE_VEC4.INL
E:\TERRAIN\EXTERNALS\GLM-0.9.1\GLM\CORE\TYPE_MAT2X2.HPP
E:\TERRAIN\EXTERNALS\GLM-0.9.1\GLM\CORE\TYPE_MAT.HPP
E:\TERRAIN\EXTERNALS\GLM-0.9.1\GLM\CORE\TYPE_MAT2X2.INL
E:\TERRAIN\EXTERNALS\GLM-0.9.1\GLM\CORE\TYPE_MAT2X3.HPP
E:\TERRAIN\EXTERNALS\GLM-0.9.1\GLM\CORE\TYPE_MAT2X3.INL
E:\TERRAIN\EXTERNALS\GLM-0.9.1\GLM\CORE\TYPE_MAT2X4.HPP
E:\TERRAIN\EXTERNALS\GLM-0.9.1\GLM\CORE\TYPE_MAT2X4.INL
E:\TERRAIN\EXTERNALS\GLM-0.9.1\GLM\CORE\TYPE_MAT3X2.HPP
E:\TERRAIN\EXTERNALS\GLM-0.9.1\GLM\CORE\TYPE_MAT3X2.INL
E:\TERRAIN\EXTERNALS\GLM-0.9.1\GLM\CORE\TYPE_MAT3X3.HPP
E:\TERRAIN\EXTERNALS\GLM-0.9.1\GLM\CORE\TYPE_MAT3X3.INL
E:\TERRAIN\EXTERNALS\GLM-0.9.1\GLM\CORE\TYPE_MAT3X4.HPP
E:\TERRAIN\EXTERNALS\GLM-0.9.1\GLM\CORE\TYPE_MAT3X4.INL
E:\TERRAIN\EXTERNALS\GLM-0.9.1\GLM\CORE\TYPE_MAT4X2.HPP
E:\TERRAIN\EXTERNALS\GLM-0.9.1\GLM\CORE\TYPE_MAT4X2.INL
E:\TERRAIN\EXTERNALS\GLM-0.9.1\GLM\CORE\TYPE_MAT4X3.HPP
E:\TERRAIN\EXTERNALS\GLM-0.9.1\GLM\CORE\TYPE_MAT4X3.INL
E:\TERRAIN\EXTERNALS\GLM-0.9.1\GLM\CORE\TYPE_MAT4X4.HPP
E:\TERRAIN\EXTERNALS\GLM-0.9.1\GLM\CORE\TYPE_MAT4X4.INL
E:\TERRAIN\EXTERNALS\GLM-0.9.1\GLM\CORE\FUNC_TRIGONOMETRIC.HPP
E:\TERRAIN\EXTERNALS\GLM-0.9.1\GLM\CORE\FUNC_TRIGONOMETRIC.INL
E:\TERRAIN\EXTERNALS\GLM-0.9.1\GLM\CORE\FUNC_EXPONENTIAL.HPP
E:\TERRAIN\EXTERNALS\GLM-0.9.1\GLM\CORE\FUNC_EXPONENTIAL.INL
E:\TERRAIN\EXTERNALS\GLM-0.9.1\GLM\CORE\FUNC_COMMON.HPP
E:\TERRAIN\EXTERNALS\GLM-0.9.1\GLM\CORE\FUNC_COMMON.INL
E:\TERRAIN\EXTERNALS\GLM-0.9.1\GLM\CORE\FUNC_PACKING.HPP
E:\TERRAIN\EXTERNALS\GLM-0.9.1\GLM\CORE\FUNC_PACKING.INL
E:\TERRAIN\EXTERNALS\GLM-0.9.1\GLM\CORE\FUNC_GEOMETRIC.HPP
E:\TERRAIN\EXTERNALS\GLM-0.9.1\GLM\CORE\FUNC_GEOMETRIC.INL
E:\TERRAIN\EXTERNALS\GLM-0.9.1\GLM\CORE\FUNC_MATRIX.HPP
E:\TERRAIN\EXTERNALS\GLM-0.9.1\GLM\CORE\FUNC_MATRIX.INL
E:\TERRAIN\EXTERNALS\GLM-0.9.1\GLM\CORE\FUNC_VECTOR_RELATIONAL.HPP
E:\TERRAIN\EXTERNALS\GLM-0.9.1\GLM\CORE\FUNC_VECTOR_RELATIONAL.INL
E:\TERRAIN\EXTERNALS\GLM-0.9.1\GLM\CORE\FUNC_INTEGER.HPP
E:\TERRAIN\EXTERNALS\GLM-0.9.1\GLM\CORE\FUNC_INTEGER.INL
E:\TERRAIN\EXTERNALS\GLM-0.9.1\GLM\CORE\FUNC_NOISE.HPP
E:\TERRAIN\EXTERNALS\GLM-0.9.1\GLM\CORE\FUNC_NOISE.INL
E:\TERRAIN\EXTERNALS\GLM-0.9.1\GLM\GTX\STD_BASED_TYPE.HPP
E:\TERRAIN\EXTERNALS\GLM-0.9.1\GLM\GTX\STD_BASED_TYPE.INL
E:\TERRAIN\EXTERNALS\GLEW-1.5.8\INCLUDE\GL\GLEW.H
C:\PROGRAM FILES (X86)\WINDOWS KITS\10\INCLUDE\10.0.17134.0\UM\GL\GLU.H
C:\PROGRAM FILES (X86)\WINDOWS KITS\10\INCLUDE\10.0.17134.0\SHARED\WINAPIFAMILY.H
C:\PROGRAM FILES (X86)\WINDOWS KITS\10\INCLUDE\10.0.17134.0\SHARED\WINPACKAGEFAMILY.H
C:\PROGRAM FILES (X86)\WINDOWS KITS\10\INCLUDE\10.0.17134.0\UM\GL\GL.H
E:\TERRAIN\EXTERNALS\SIMPLE OPENGL IMAGE LIBRARY\SRC\SOIL.H
C:\PROGRAM FILES (X86)\MICROSOFT VISUAL STUDIO\2017\COMMUNITY\VC\TOOLS\MSVC\14.15.26726\INCLUDE\FSTREAM
C:\PROGRAM FILES (X86)\MICROSOFT VISUAL STUDIO\2017\COMMUNITY\VC\TOOLS\MSVC\14.15.26726\INCLUDE\IOSTREAM
E:\TERRAIN\EXTERNALS\GLM-0.9.1\GLM\GTC\TYPE_PTR.HPP
E:\TERRAIN\EXTERNALS\GLM-0.9.1\GLM\GTC\TYPE_PTR.INL
C:\PROGRAM FILES (X86)\MICROSOFT VISUAL STUDIO\2017\COMMUNITY\VC\TOOLS\MSVC\14.15.26726\INCLUDE\FILESYSTEM
C:\PROGRAM FILES (X86)\MICROSOFT VISUAL STUDIO\2017\COMMUNITY\VC\TOOLS\MSVC\14.15.26726\INCLUDE\EXPERIMENTAL\FILESYSTEM
C:\PROGRAM FILES (X86)\MICROSOFT VISUAL STUDIO\2017\COMMUNITY\VC\TOOLS\MSVC\14.15.26726\INCLUDE\ALGORITHM
C:\PROGRAM FILES (X86)\MICROSOFT VISUAL STUDIO\2017\COMMUNITY\VC\TOOLS\MSVC\14.15.26726\INCLUDE\CHRONO
C:\PROGRAM FILES (X86)\MICROSOFT VISUAL STUDIO\2017\COMMUNITY\VC\TOOLS\MSVC\14.15.26726\INCLUDE\RATIO
C:\PROGRAM FILES (X86)\WINDOWS KITS\10\INCLUDE\10.0.17134.0\UCRT\TIME.H
C:\PROGRAM FILES (X86)\MICROSOFT VISUAL STUDIO\2017\COMMUNITY\VC\TOOLS\MSVC\14.15.26726\INCLUDE\THR\XTIMEC.H
C:\PROGRAM FILES (X86)\MICROSOFT VISUAL STUDIO\2017\COMMUNITY\VC\TOOLS\MSVC\14.15.26726\INCLUDE\THR\XTHRCOMMON.H
C:\PROGRAM FILES (X86)\MICROSOFT VISUAL STUDIO\2017\COMMUNITY\VC\TOOLS\MSVC\14.15.26726\INCLUDE\CODECVT
C:\PROGRAM FILES (X86)\MICROSOFT VISUAL STUDIO\2017\COMMUNITY\VC\TOOLS\MSVC\14.15.26726\INCLUDE\LOCALE
C:\PROGRAM FILES (X86)\MICROSOFT VISUAL STUDIO\2017\COMMUNITY\VC\TOOLS\MSVC\14.15.26726\INCLUDE\XLOCBUF
C:\PROGRAM FILES (X86)\MICROSOFT VISUAL STUDIO\2017\COMMUNITY\VC\TOOLS\MSVC\14.15.26726\INCLUDE\XLOCMES
C:\PROGRAM FILES (X86)\MICROSOFT VISUAL STUDIO\2017\COMMUNITY\VC\TOOLS\MSVC\14.15.26726\INCLUDE\XLOCMON
C:\PROGRAM FILES (X86)\MICROSOFT VISUAL STUDIO\2017\COMMUNITY\VC\TOOLS\MSVC\14.15.26726\INCLUDE\XLOCTIME
C:\PROGRAM FILES (X86)\MICROSOFT VISUAL STUDIO\2017\COMMUNITY\VC\TOOLS\MSVC\14.15.26726\INCLUDE\CTIME
C:\PROGRAM FILES (X86)\MICROSOFT VISUAL STUDIO\2017\COMMUNITY\VC\TOOLS\MSVC\14.15.26726\INCLUDE\LIST
E:\TERRAIN\EXTERNALS\GLM-0.9.1\GLM\GTX\COMPATIBILITY.HPP
E:\TERRAIN\EXTERNALS\GLM-0.9.1\GLM\GTC\HALF_FLOAT.HPP
E:\TERRAIN\EXTERNALS\GLM-0.9.1\GLM\GTC\HALF_FLOAT.INL
E:\TERRAIN\EXTERNALS\GLM-0.9.1\GLM\GTX\COMPATIBILITY.INL
C:\PROGRAM FILES (X86)\MICROSOFT VISUAL STUDIO\2017\COMMUNITY\VC\TOOLS\MSVC\14.15.26726\BIN\HOSTX86\X86\MSPDBSRV.EXE
^E:\TERRAIN\TERRAIN\SRC\CAMERA.CPP
E:\TERRAIN\TERRAIN\DEBUG\TERRAIN.PCH
E:\TERRAIN\TERRAIN\INC\CAMERA.H
E:\TERRAIN\EXTERNALS\GLM-0.9.1\GLM\GTC\QUATERNION.HPP
E:\TERRAIN\EXTERNALS\GLM-0.9.1\GLM\GLM.HPP
E:\TERRAIN\EXTERNALS\GLM-0.9.1\GLM\CORE\_FIXES.HPP
C:\PROGRAM FILES (X86)\MICROSOFT VISUAL STUDIO\2017\COMMUNITY\VC\TOOLS\MSVC\14.15.26726\INCLUDE\CMATH
C:\PROGRAM FILES (X86)\MICROSOFT VISUAL STUDIO\2017\COMMUNITY\VC\TOOLS\MSVC\14.15.26726\INCLUDE\YVALS.H
C:\PROGRAM FILES (X86)\MICROSOFT VISUAL STUDIO\2017\COMMUNITY\VC\TOOLS\MSVC\14.15.26726\INCLUDE\YVALS_CORE.H
C:\PROGRAM FILES (X86)\MICROSOFT VISUAL STUDIO\2017\COMMUNITY\VC\TOOLS\MSVC\14.15.26726\INCLUDE\XKEYCHECK.H
C:\PROGRAM FILES (X86)\MICROSOFT VISUAL STUDIO\2017\COMMUNITY\VC\TOOLS\MSVC\14.15.26726\INCLUDE\CRTDEFS.H
C:\PROGRAM FILES (X86)\MICROSOFT VISUAL STUDIO\2017\COMMUNITY\VC\TOOLS\MSVC\14.15.26726\INCLUDE\VCRUNTIME.H
C:\PROGRAM FILES (X86)\MICROSOFT VISUAL STUDIO\2017\COMMUNITY\VC\TOOLS\MSVC\14.15.26726\INCLUDE\SAL.H
C:\PROGRAM FILES (X86)\MICROSOFT VISUAL STUDIO\2017\COMMUNITY\VC\TOOLS\MSVC\14.15.26726\INCLUDE\CONCURRENCYSAL.H
C:\PROGRAM FILES (X86)\MICROSOFT VISUAL STUDIO\2017\COMMUNITY\VC\TOOLS\MSVC\14.15.26726\INCLUDE\VADEFS.H
C:\PROGRAM FILES (X86)\WINDOWS KITS\10\INCLUDE\10.0.17134.0\UCRT\CORECRT.H
C:\PROGRAM FILES (X86)\WINDOWS KITS\10\INCLUDE\10.0.17134.0\UCRT\CRTDBG.H
C:\PROGRAM FILES (X86)\MICROSOFT VISUAL STUDIO\2017\COMMUNITY\VC\TOOLS\MSVC\14.15.26726\INCLUDE\VCRUNTIME_NEW_DEBUG.H
C:\PROGRAM FILES (X86)\MICROSOFT VISUAL STUDIO\2017\COMMUNITY\VC\TOOLS\MSVC\14.15.26726\INCLUDE\VCRUNTIME_NEW.H
C:\PROGRAM FILES (X86)\MICROSOFT VISUAL STUDIO\2017\COMMUNITY\VC\TOOLS\MSVC\14.15.26726\INCLUDE\USE_ANSI.H
C:\PROGRAM FILES (X86)\MICROSOFT VISUAL STUDIO\2017\COMMUNITY\VC\TOOLS\MSVC\14.15.26726\INCLUDE\CSTDLIB
C:\PROGRAM FILES (X86)\WINDOWS KITS\10\INCLUDE\10.0.17134.0\UCRT\STDLIB.H
C:\PROGRAM FILES (X86)\WINDOWS KITS\10\INCLUDE\10.0.17134.0\UCRT\CORECRT_MALLOC.H
C:\PROGRAM FILES (X86)\WINDOWS KITS\10\INCLUDE\10.0.17134.0\UCRT\CORECRT_SEARCH.H
C:\PROGRAM FILES (X86)\WINDOWS KITS\10\INCLUDE\10.0.17134.0\UCRT\STDDEF.H
C:\PROGRAM FILES (X86)\WINDOWS KITS\10\INCLUDE\10.0.17134.0\UCRT\CORECRT_WSTDLIB.H
C:\PROGRAM FILES (X86)\MICROSOFT VISUAL STUDIO\2017\COMMUNITY\VC\TOOLS\MSVC\14.15.26726\INCLUDE\LIMITS.H
C:\PROGRAM FILES (X86)\WINDOWS KITS\10\INCLUDE\10.0.17134.0\UCRT\MATH.H
C:\PROGRAM FILES (X86)\WINDOWS KITS\10\INCLUDE\10.0.17134.0\UCRT\CORECRT_MATH.H
C:\PROGRAM FILES (X86)\MICROSOFT VISUAL STUDIO\2017\COMMUNITY\VC\TOOLS\MSVC\14.15.26726\INCLUDE\XTGMATH.H
C:\PROGRAM FILES (X86)\MICROSOFT VISUAL STUDIO\2017\COMMUNITY\VC\TOOLS\MSVC\14.15.26726\INCLUDE\XTR1COMMON
C:\PROGRAM FILES (X86)\MICROSOFT VISUAL STUDIO\2017\COMMUNITY\VC\TOOLS\MSVC\14.15.26726\INCLUDE\CLIMITS
C:\PROGRAM FILES (X86)\MICROSOFT VISUAL STUDIO\2017\COMMUNITY\VC\TOOLS\MSVC\14.15.26726\INCLUDE\CFLOAT
C:\PROGRAM FILES (X86)\WINDOWS KITS\10\INCLUDE\10.0.17134.0\UCRT\FLOAT.H
C:\PROGRAM FILES (X86)\MICROSOFT VISUAL STUDIO\2017\COMMUNITY\VC\TOOLS\MSVC\14.15.26726\INCLUDE\LIMITS
C:\PROGRAM FILES (X86)\MICROSOFT VISUAL STUDIO\2017\COMMUNITY\VC\TOOLS\MSVC\14.15.26726\INCLUDE\YMATH.H
C:\PROGRAM FILES (X86)\MICROSOFT VISUAL STUDIO\2017\COMMUNITY\VC\TOOLS\MSVC\14.15.26726\INCLUDE\CWCHAR
C:\PROGRAM FILES (X86)\WINDOWS KITS\10\INCLUDE\10.0.17134.0\UCRT\WCHAR.H
C:\PROGRAM FILES (X86)\WINDOWS KITS\10\INCLUDE\10.0.17134.0\UCRT\CORECRT_MEMCPY_S.H
C:\PROGRAM FILES (X86)\WINDOWS KITS\10\INCLUDE\10.0.17134.0\UCRT\ERRNO.H
C:\PROGRAM FILES (X86)\MICROSOFT VISUAL STUDIO\2017\COMMUNITY\VC\TOOLS\MSVC\14.15.26726\INCLUDE\VCRUNTIME_STRING.H
C:\PROGRAM FILES (X86)\WINDOWS KITS\10\INCLUDE\10.0.17134.0\UCRT\CORECRT_WCONIO.H
C:\PROGRAM FILES (X86)\WINDOWS KITS\10\INCLUDE\10.0.17134.0\UCRT\CORECRT_STDIO_CONFIG.H
C:\PROGRAM FILES (X86)\WINDOWS KITS\10\INCLUDE\10.0.17134.0\UCRT\CORECRT_WCTYPE.H
C:\PROGRAM FILES (X86)\WINDOWS KITS\10\INCLUDE\10.0.17134.0\UCRT\CORECRT_WDIRECT.H
C:\PROGRAM FILES (X86)\WINDOWS KITS\10\INCLUDE\10.0.17134.0\UCRT\CORECRT_WIO.H
C:\PROGRAM FILES (X86)\WINDOWS KITS\10\INCLUDE\10.0.17134.0\UCRT\CORECRT_SHARE.H
C:\PROGRAM FILES (X86)\WINDOWS KITS\10\INCLUDE\10.0.17134.0\UCRT\CORECRT_WPROCESS.H
C:\PROGRAM FILES (X86)\WINDOWS KITS\10\INCLUDE\10.0.17134.0\UCRT\CORECRT_WSTDIO.H
C:\PROGRAM FILES (X86)\WINDOWS KITS\10\INCLUDE\10.0.17134.0\UCRT\CORECRT_WSTRING.H
C:\PROGRAM FILES (X86)\WINDOWS KITS\10\INCLUDE\10.0.17134.0\UCRT\CORECRT_WTIME.H
C:\PROGRAM FILES (X86)\WINDOWS KITS\10\INCLUDE\10.0.17134.0\UCRT\SYS\STAT.H
C:\PROGRAM FILES (X86)\WINDOWS KITS\10\INCLUDE\10.0.17134.0\UCRT\SYS\TYPES.H
C:\PROGRAM FILES (X86)\MICROSOFT VISUAL STUDIO\2017\COMMUNITY\VC\TOOLS\MSVC\14.15.26726\INCLUDE\XSTDDEF
C:\PROGRAM FILES (X86)\MICROSOFT VISUAL STUDIO\2017\COMMUNITY\VC\TOOLS\MSVC\14.15.26726\INCLUDE\CSTDDEF
C:\PROGRAM FILES (X86)\MICROSOFT VISUAL STUDIO\2017\COMMUNITY\VC\TOOLS\MSVC\14.15.26726\INCLUDE\INITIALIZER_LIST
E:\TERRAIN\EXTERNALS\GLM-0.9.1\GLM\CORE\SETUP.HPP
E:\TERRAIN\EXTERNALS\GLM-0.9.1\GLM\CORE\_DETAIL.HPP
C:\PROGRAM FILES (X86)\MICROSOFT VISUAL STUDIO\2017\COMMUNITY\VC\TOOLS\MSVC\14.15.26726\INCLUDE\CASSERT
C:\PROGRAM FILES (X86)\WINDOWS KITS\10\INCLUDE\10.0.17134.0\UCRT\ASSERT.H
E:\TERRAIN\EXTERNALS\GLM-0.9.1\GLM\CORE\TYPE.HPP
E:\TERRAIN\EXTERNALS\GLM-0.9.1\GLM\CORE\TYPE_HALF.HPP
E:\TERRAIN\EXTERNALS\GLM-0.9.1\GLM\CORE\TYPE_HALF.INL
E:\TERRAIN\EXTERNALS\GLM-0.9.1\GLM\CORE\TYPE_FLOAT.HPP
E:\TERRAIN\EXTERNALS\GLM-0.9.1\GLM\CORE\TYPE_INT.HPP
E:\TERRAIN\EXTERNALS\GLM-0.9.1\GLM\CORE\TYPE_GENTYPE.HPP
E:\TERRAIN\EXTERNALS\GLM-0.9.1\GLM\CORE\TYPE_SIZE.HPP
E:\TERRAIN\EXTERNALS\GLM-0.9.1\GLM\CORE\TYPE_VEC1.HPP
E:\TERRAIN\EXTERNALS\GLM-0.9.1\GLM\CORE\TYPE_VEC.HPP
E:\TERRAIN\EXTERNALS\GLM-0.9.1\GLM\CORE\_SWIZZLE.HPP
E:\TERRAIN\EXTERNALS\GLM-0.9.1\GLM\CORE\TYPE_VEC1.INL
E:\TERRAIN\EXTERNALS\GLM-0.9.1\GLM\CORE\TYPE_VEC2.HPP
E:\TERRAIN\EXTERNALS\GLM-0.9.1\GLM\CORE\TYPE_VEC2.INL
E:\TERRAIN\EXTERNALS\GLM-0.9.1\GLM\CORE\TYPE_VEC3.HPP
E:\TERRAIN\EXTERNALS\GLM-0.9.1\GLM\CORE\TYPE_VEC3.INL
E:\TERRAIN\EXTERNALS\GLM-0.9.1\GLM\CORE\TYPE_VEC4.HPP
E:\TERRAIN\EXTERNALS\GLM-0.9.1\GLM\CORE\TYPE_VEC4.INL
E:\TERRAIN\EXTERNALS\GLM-0.9.1\GLM\CORE\TYPE_MAT2X2.HPP
E:\TERRAIN\EXTERNALS\GLM-0.9.1\GLM\CORE\TYPE_MAT.HPP
E:\TERRAIN\EXTERNALS\GLM-0.9.1\GLM\CORE\TYPE_MAT2X2.INL
E:\TERRAIN\EXTERNALS\GLM-0.9.1\GLM\CORE\TYPE_MAT2X3.HPP
E:\TERRAIN\EXTERNALS\GLM-0.9.1\GLM\CORE\TYPE_MAT2X3.INL
E:\TERRAIN\EXTERNALS\GLM-0.9.1\GLM\CORE\TYPE_MAT2X4.HPP
E:\TERRAIN\EXTERNALS\GLM-0.9.1\GLM\CORE\TYPE_MAT2X4.INL
E:\TERRAIN\EXTERNALS\GLM-0.9.1\GLM\CORE\TYPE_MAT3X2.HPP
E:\TERRAIN\EXTERNALS\GLM-0.9.1\GLM\CORE\TYPE_MAT3X2.INL
E:\TERRAIN\EXTERNALS\GLM-0.9.1\GLM\CORE\TYPE_MAT3X3.HPP
E:\TERRAIN\EXTERNALS\GLM-0.9.1\GLM\CORE\TYPE_MAT3X3.INL
E:\TERRAIN\EXTERNALS\GLM-0.9.1\GLM\CORE\TYPE_MAT3X4.HPP
E:\TERRAIN\EXTERNALS\GLM-0.9.1\GLM\CORE\TYPE_MAT3X4.INL
E:\TERRAIN\EXTERNALS\GLM-0.9.1\GLM\CORE\TYPE_MAT4X2.HPP
E:\TERRAIN\EXTERNALS\GLM-0.9.1\GLM\CORE\TYPE_MAT4X2.INL
E:\TERRAIN\EXTERNALS\GLM-0.9.1\GLM\CORE\TYPE_MAT4X3.HPP
E:\TERRAIN\EXTERNALS\GLM-0.9.1\GLM\CORE\TYPE_MAT4X3.INL
E:\TERRAIN\EXTERNALS\GLM-0.9.1\GLM\CORE\TYPE_MAT4X4.HPP
E:\TERRAIN\EXTERNALS\GLM-0.9.1\GLM\CORE\TYPE_MAT4X4.INL
E:\TERRAIN\EXTERNALS\GLM-0.9.1\GLM\CORE\FUNC_TRIGONOMETRIC.HPP
E:\TERRAIN\EXTERNALS\GLM-0.9.1\GLM\CORE\FUNC_TRIGONOMETRIC.INL
E:\TERRAIN\EXTERNALS\GLM-0.9.1\GLM\CORE\FUNC_EXPONENTIAL.HPP
E:\TERRAIN\EXTERNALS\GLM-0.9.1\GLM\CORE\FUNC_EXPONENTIAL.INL
E:\TERRAIN\EXTERNALS\GLM-0.9.1\GLM\CORE\FUNC_COMMON.HPP
E:\TERRAIN\EXTERNALS\GLM-0.9.1\GLM\CORE\FUNC_COMMON.INL
E:\TERRAIN\EXTERNALS\GLM-0.9.1\GLM\CORE\FUNC_PACKING.HPP
E:\TERRAIN\EXTERNALS\GLM-0.9.1\GLM\CORE\FUNC_PACKING.INL
E:\TERRAIN\EXTERNALS\GLM-0.9.1\GLM\CORE\FUNC_GEOMETRIC.HPP
E:\TERRAIN\EXTERNALS\GLM-0.9.1\GLM\CORE\FUNC_GEOMETRIC.INL
E:\TERRAIN\EXTERNALS\GLM-0.9.1\GLM\CORE\FUNC_MATRIX.HPP
E:\TERRAIN\EXTERNALS\GLM-0.9.1\GLM\CORE\FUNC_MATRIX.INL
E:\TERRAIN\EXTERNALS\GLM-0.9.1\GLM\CORE\FUNC_VECTOR_RELATIONAL.HPP
E:\TERRAIN\EXTERNALS\GLM-0.9.1\GLM\CORE\FUNC_VECTOR_RELATIONAL.INL
E:\TERRAIN\EXTERNALS\GLM-0.9.1\GLM\CORE\FUNC_INTEGER.HPP
E:\TERRAIN\EXTERNALS\GLM-0.9.1\GLM\CORE\FUNC_INTEGER.INL
E:\TERRAIN\EXTERNALS\GLM-0.9.1\GLM\CORE\FUNC_NOISE.HPP
E:\TERRAIN\EXTERNALS\GLM-0.9.1\GLM\CORE\FUNC_NOISE.INL
E:\TERRAIN\EXTERNALS\GLM-0.9.1\GLM\GTC\HALF_FLOAT.HPP
E:\TERRAIN\EXTERNALS\GLM-0.9.1\GLM\GTC\HALF_FLOAT.INL
E:\TERRAIN\EXTERNALS\GLM-0.9.1\GLM\GTC\QUATERNION.INL
C:\PROGRAM FILES (X86)\MICROSOFT VISUAL STUDIO\2017\COMMUNITY\VC\TOOLS\MSVC\14.15.26726\INCLUDE\ALGORITHM
C:\PROGRAM FILES (X86)\MICROSOFT VISUAL STUDIO\2017\COMMUNITY\VC\TOOLS\MSVC\14.15.26726\INCLUDE\XMEMORY
C:\PROGRAM FILES (X86)\MICROSOFT VISUAL STUDIO\2017\COMMUNITY\VC\TOOLS\MSVC\14.15.26726\INCLUDE\XMEMORY0
C:\PROGRAM FILES (X86)\MICROSOFT VISUAL STUDIO\2017\COMMUNITY\VC\TOOLS\MSVC\14.15.26726\INCLUDE\CSTDINT
C:\PROGRAM FILES (X86)\MICROSOFT VISUAL STUDIO\2017\COMMUNITY\VC\TOOLS\MSVC\14.15.26726\INCLUDE\STDINT.H
C:\PROGRAM FILES (X86)\MICROSOFT VISUAL STUDIO\2017\COMMUNITY\VC\TOOLS\MSVC\14.15.26726\INCLUDE\NEW
C:\PROGRAM FILES (X86)\MICROSOFT VISUAL STUDIO\2017\COMMUNITY\VC\TOOLS\MSVC\14.15.26726\INCLUDE\EXCEPTION
C:\PROGRAM FILES (X86)\MICROSOFT VISUAL STUDIO\2017\COMMUNITY\VC\TOOLS\MSVC\14.15.26726\INCLUDE\TYPE_TRAITS
C:\PROGRAM FILES (X86)\WINDOWS KITS\10\INCLUDE\10.0.17134.0\UCRT\MALLOC.H
C:\PROGRAM FILES (X86)\MICROSOFT VISUAL STUDIO\2017\COMMUNITY\VC\TOOLS\MSVC\14.15.26726\INCLUDE\VCRUNTIME_EXCEPTION.H
C:\PROGRAM FILES (X86)\MICROSOFT VISUAL STUDIO\2017\COMMUNITY\VC\TOOLS\MSVC\14.15.26726\INCLUDE\EH.H
C:\PROGRAM FILES (X86)\WINDOWS KITS\10\INCLUDE\10.0.17134.0\UCRT\CORECRT_TERMINATE.H
C:\PROGRAM FILES (X86)\MICROSOFT VISUAL STUDIO\2017\COMMUNITY\VC\TOOLS\MSVC\14.15.26726\INCLUDE\XUTILITY
C:\PROGRAM FILES (X86)\MICROSOFT VISUAL STUDIO\2017\COMMUNITY\VC\TOOLS\MSVC\14.15.26726\INCLUDE\UTILITY
C:\PROGRAM FILES (X86)\MICROSOFT VISUAL STUDIO\2017\COMMUNITY\VC\TOOLS\MSVC\14.15.26726\INCLUDE\IOSFWD
C:\PROGRAM FILES (X86)\MICROSOFT VISUAL STUDIO\2017\COMMUNITY\VC\TOOLS\MSVC\14.15.26726\INCLUDE\CSTDIO
C:\PROGRAM FILES (X86)\WINDOWS KITS\10\INCLUDE\10.0.17134.0\UCRT\STDIO.H
C:\PROGRAM FILES (X86)\MICROSOFT VISUAL STUDIO\2017\COMMUNITY\VC\TOOLS\MSVC\14.15.26726\INCLUDE\CSTRING
C:\PROGRAM FILES (X86)\WINDOWS KITS\10\INCLUDE\10.0.17134.0\UCRT\STRING.H
C:\PROGRAM FILES (X86)\WINDOWS KITS\10\INCLUDE\10.0.17134.0\UCRT\CORECRT_MEMORY.H
C:\PROGRAM FILES (X86)\MICROSOFT VISUAL STUDIO\2017\COMMUNITY\VC\TOOLS\MSVC\14.15.26726\INCLUDE\XATOMIC0.H
C:\PROGRAM FILES (X86)\MICROSOFT VISUAL STUDIO\2017\COMMUNITY\VC\TOOLS\MSVC\14.15.26726\INCLUDE\INTRIN0.H
E:\TERRAIN\EXTERNALS\GLM-0.9.1\GLM\GTX\EULER_ANGLES.HPP
E:\TERRAIN\EXTERNALS\GLM-0.9.1\GLM\GTX\EULER_ANGLES.INL
E:\TERRAIN\EXTERNALS\GLEW-1.5.8\INCLUDE\GL\GLEW.H
C:\PROGRAM FILES (X86)\WINDOWS KITS\10\INCLUDE\10.0.17134.0\UM\GL\GLU.H
C:\PROGRAM FILES (X86)\WINDOWS KITS\10\INCLUDE\10.0.17134.0\SHARED\WINAPIFAMILY.H
C:\PROGRAM FILES (X86)\WINDOWS KITS\10\INCLUDE\10.0.17134.0\SHARED\WINPACKAGEFAMILY.H
C:\PROGRAM FILES (X86)\WINDOWS KITS\10\INCLUDE\10.0.17134.0\UM\GL\GL.H
E:\TERRAIN\EXTERNALS\GLM-0.9.1\GLM\GTX\QUATERNION.HPP
E:\TERRAIN\EXTERNALS\GLM-0.9.1\GLM\GTX\QUATERNION.INL
C:\PROGRAM FILES (X86)\MICROSOFT VISUAL STUDIO\2017\COMMUNITY\VC\TOOLS\MSVC\14.15.26726\BIN\HOSTX86\X86\1033\CLUI.DLL
C:\WINDOWS\GLOBALIZATION\SORTING\SORTDEFAULT.NLS
C:\WINDOWS\SYSTEM32\RSAENH.DLL
C:\WINDOWS\SYSTEM32\TZRES.DLL
^E:\TERRAIN\TERRAIN\SRC\MAIN.CPP
C:\PROGRAM FILES (X86)\MICROSOFT VISUAL STUDIO\2017\COMMUNITY\VC\TOOLS\MSVC\14.15.26726\BIN\HOSTX86\X86\1033\CLUI.DLL
C:\WINDOWS\GLOBALIZATION\SORTING\SORTDEFAULT.NLS
C:\WINDOWS\SYSTEM32\RSAENH.DLL
C:\WINDOWS\SYSTEM32\TZRES.DLL
E:\TERRAIN\TERRAIN\INC\TERRAIN.H
C:\PROGRAM FILES (X86)\MICROSOFT VISUAL STUDIO\2017\COMMUNITY\VC\TOOLS\MSVC\14.15.26726\INCLUDE\STRING
C:\PROGRAM FILES (X86)\MICROSOFT VISUAL STUDIO\2017\COMMUNITY\VC\TOOLS\MSVC\14.15.26726\INCLUDE\ISTREAM
C:\PROGRAM FILES (X86)\MICROSOFT VISUAL STUDIO\2017\COMMUNITY\VC\TOOLS\MSVC\14.15.26726\INCLUDE\OSTREAM
C:\PROGRAM FILES (X86)\MICROSOFT VISUAL STUDIO\2017\COMMUNITY\VC\TOOLS\MSVC\14.15.26726\INCLUDE\IOS
C:\PROGRAM FILES (X86)\MICROSOFT VISUAL STUDIO\2017\COMMUNITY\VC\TOOLS\MSVC\14.15.26726\INCLUDE\XLOCNUM
C:\PROGRAM FILES (X86)\MICROSOFT VISUAL STUDIO\2017\COMMUNITY\VC\TOOLS\MSVC\14.15.26726\INCLUDE\CLIMITS
C:\PROGRAM FILES (X86)\MICROSOFT VISUAL STUDIO\2017\COMMUNITY\VC\TOOLS\MSVC\14.15.26726\INCLUDE\YVALS.H
C:\PROGRAM FILES (X86)\MICROSOFT VISUAL STUDIO\2017\COMMUNITY\VC\TOOLS\MSVC\14.15.26726\INCLUDE\YVALS_CORE.H
C:\PROGRAM FILES (X86)\MICROSOFT VISUAL STUDIO\2017\COMMUNITY\VC\TOOLS\MSVC\14.15.26726\INCLUDE\XKEYCHECK.H
C:\PROGRAM FILES (X86)\MICROSOFT VISUAL STUDIO\2017\COMMUNITY\VC\TOOLS\MSVC\14.15.26726\INCLUDE\CRTDEFS.H
C:\PROGRAM FILES (X86)\MICROSOFT VISUAL STUDIO\2017\COMMUNITY\VC\TOOLS\MSVC\14.15.26726\INCLUDE\VCRUNTIME.H
C:\PROGRAM FILES (X86)\MICROSOFT VISUAL STUDIO\2017\COMMUNITY\VC\TOOLS\MSVC\14.15.26726\INCLUDE\SAL.H
C:\PROGRAM FILES (X86)\MICROSOFT VISUAL STUDIO\2017\COMMUNITY\VC\TOOLS\MSVC\14.15.26726\INCLUDE\CONCURRENCYSAL.H
C:\PROGRAM FILES (X86)\MICROSOFT VISUAL STUDIO\2017\COMMUNITY\VC\TOOLS\MSVC\14.15.26726\INCLUDE\VADEFS.H
C:\PROGRAM FILES (X86)\WINDOWS KITS\10\INCLUDE\10.0.17134.0\UCRT\CORECRT.H
C:\PROGRAM FILES (X86)\WINDOWS KITS\10\INCLUDE\10.0.17134.0\UCRT\CRTDBG.H
C:\PROGRAM FILES (X86)\MICROSOFT VISUAL STUDIO\2017\COMMUNITY\VC\TOOLS\MSVC\14.15.26726\INCLUDE\VCRUNTIME_NEW_DEBUG.H
C:\PROGRAM FILES (X86)\MICROSOFT VISUAL STUDIO\2017\COMMUNITY\VC\TOOLS\MSVC\14.15.26726\INCLUDE\VCRUNTIME_NEW.H
C:\PROGRAM FILES (X86)\MICROSOFT VISUAL STUDIO\2017\COMMUNITY\VC\TOOLS\MSVC\14.15.26726\INCLUDE\USE_ANSI.H
C:\PROGRAM FILES (X86)\MICROSOFT VISUAL STUDIO\2017\COMMUNITY\VC\TOOLS\MSVC\14.15.26726\INCLUDE\LIMITS.H
C:\PROGRAM FILES (X86)\MICROSOFT VISUAL STUDIO\2017\COMMUNITY\VC\TOOLS\MSVC\14.15.26726\INCLUDE\CMATH
C:\PROGRAM FILES (X86)\MICROSOFT VISUAL STUDIO\2017\COMMUNITY\VC\TOOLS\MSVC\14.15.26726\INCLUDE\CSTDLIB
C:\PROGRAM FILES (X86)\WINDOWS KITS\10\INCLUDE\10.0.17134.0\UCRT\STDLIB.H
C:\PROGRAM FILES (X86)\WINDOWS KITS\10\INCLUDE\10.0.17134.0\UCRT\CORECRT_MALLOC.H
C:\PROGRAM FILES (X86)\WINDOWS KITS\10\INCLUDE\10.0.17134.0\UCRT\CORECRT_SEARCH.H
C:\PROGRAM FILES (X86)\WINDOWS KITS\10\INCLUDE\10.0.17134.0\UCRT\STDDEF.H
C:\PROGRAM FILES (X86)\WINDOWS KITS\10\INCLUDE\10.0.17134.0\UCRT\CORECRT_WSTDLIB.H
C:\PROGRAM FILES (X86)\WINDOWS KITS\10\INCLUDE\10.0.17134.0\UCRT\MATH.H
C:\PROGRAM FILES (X86)\WINDOWS KITS\10\INCLUDE\10.0.17134.0\UCRT\CORECRT_MATH.H
C:\PROGRAM FILES (X86)\MICROSOFT VISUAL STUDIO\2017\COMMUNITY\VC\TOOLS\MSVC\14.15.26726\INCLUDE\XTGMATH.H
C:\PROGRAM FILES (X86)\MICROSOFT VISUAL STUDIO\2017\COMMUNITY\VC\TOOLS\MSVC\14.15.26726\INCLUDE\XTR1COMMON
C:\PROGRAM FILES (X86)\MICROSOFT VISUAL STUDIO\2017\COMMUNITY\VC\TOOLS\MSVC\14.15.26726\INCLUDE\CSTDIO
C:\PROGRAM FILES (X86)\WINDOWS KITS\10\INCLUDE\10.0.17134.0\UCRT\STDIO.H
C:\PROGRAM FILES (X86)\WINDOWS KITS\10\INCLUDE\10.0.17134.0\UCRT\CORECRT_WSTDIO.H
C:\PROGRAM FILES (X86)\WINDOWS KITS\10\INCLUDE\10.0.17134.0\UCRT\CORECRT_STDIO_CONFIG.H
C:\PROGRAM FILES (X86)\MICROSOFT VISUAL STUDIO\2017\COMMUNITY\VC\TOOLS\MSVC\14.15.26726\INCLUDE\STREAMBUF
C:\PROGRAM FILES (X86)\MICROSOFT VISUAL STUDIO\2017\COMMUNITY\VC\TOOLS\MSVC\14.15.26726\INCLUDE\XIOSBASE
C:\PROGRAM FILES (X86)\MICROSOFT VISUAL STUDIO\2017\COMMUNITY\VC\TOOLS\MSVC\14.15.26726\INCLUDE\XLOCALE
C:\PROGRAM FILES (X86)\MICROSOFT VISUAL STUDIO\2017\COMMUNITY\VC\TOOLS\MSVC\14.15.26726\INCLUDE\CSTRING
C:\PROGRAM FILES (X86)\WINDOWS KITS\10\INCLUDE\10.0.17134.0\UCRT\STRING.H
C:\PROGRAM FILES (X86)\WINDOWS KITS\10\INCLUDE\10.0.17134.0\UCRT\CORECRT_MEMORY.H
C:\PROGRAM FILES (X86)\WINDOWS KITS\10\INCLUDE\10.0.17134.0\UCRT\CORECRT_MEMCPY_S.H
C:\PROGRAM FILES (X86)\WINDOWS KITS\10\INCLUDE\10.0.17134.0\UCRT\ERRNO.H
C:\PROGRAM FILES (X86)\MICROSOFT VISUAL STUDIO\2017\COMMUNITY\VC\TOOLS\MSVC\14.15.26726\INCLUDE\VCRUNTIME_STRING.H
C:\PROGRAM FILES (X86)\WINDOWS KITS\10\INCLUDE\10.0.17134.0\UCRT\CORECRT_WSTRING.H
C:\PROGRAM FILES (X86)\MICROSOFT VISUAL STUDIO\2017\COMMUNITY\VC\TOOLS\MSVC\14.15.26726\INCLUDE\STDEXCEPT
C:\PROGRAM FILES (X86)\MICROSOFT VISUAL STUDIO\2017\COMMUNITY\VC\TOOLS\MSVC\14.15.26726\INCLUDE\EXCEPTION
C:\PROGRAM FILES (X86)\MICROSOFT VISUAL STUDIO\2017\COMMUNITY\VC\TOOLS\MSVC\14.15.26726\INCLUDE\TYPE_TRAITS
C:\PROGRAM FILES (X86)\MICROSOFT VISUAL STUDIO\2017\COMMUNITY\VC\TOOLS\MSVC\14.15.26726\INCLUDE\XSTDDEF
C:\PROGRAM FILES (X86)\MICROSOFT VISUAL STUDIO\2017\COMMUNITY\VC\TOOLS\MSVC\14.15.26726\INCLUDE\CSTDDEF
C:\PROGRAM FILES (X86)\MICROSOFT VISUAL STUDIO\2017\COMMUNITY\VC\TOOLS\MSVC\14.15.26726\INCLUDE\INITIALIZER_LIST
C:\PROGRAM FILES (X86)\WINDOWS KITS\10\INCLUDE\10.0.17134.0\UCRT\MALLOC.H
C:\PROGRAM FILES (X86)\MICROSOFT VISUAL STUDIO\2017\COMMUNITY\VC\TOOLS\MSVC\14.15.26726\INCLUDE\VCRUNTIME_EXCEPTION.H
C:\PROGRAM FILES (X86)\MICROSOFT VISUAL STUDIO\2017\COMMUNITY\VC\TOOLS\MSVC\14.15.26726\INCLUDE\EH.H
C:\PROGRAM FILES (X86)\WINDOWS KITS\10\INCLUDE\10.0.17134.0\UCRT\CORECRT_TERMINATE.H
C:\PROGRAM FILES (X86)\MICROSOFT VISUAL STUDIO\2017\COMMUNITY\VC\TOOLS\MSVC\14.15.26726\INCLUDE\XSTRING
C:\PROGRAM FILES (X86)\MICROSOFT VISUAL STUDIO\2017\COMMUNITY\VC\TOOLS\MSVC\14.15.26726\INCLUDE\XMEMORY0
C:\PROGRAM FILES (X86)\MICROSOFT VISUAL STUDIO\2017\COMMUNITY\VC\TOOLS\MSVC\14.15.26726\INCLUDE\CSTDINT
C:\PROGRAM FILES (X86)\MICROSOFT VISUAL STUDIO\2017\COMMUNITY\VC\TOOLS\MSVC\14.15.26726\INCLUDE\STDINT.H
C:\PROGRAM FILES (X86)\MICROSOFT VISUAL STUDIO\2017\COMMUNITY\VC\TOOLS\MSVC\14.15.26726\INCLUDE\LIMITS
C:\PROGRAM FILES (X86)\MICROSOFT VISUAL STUDIO\2017\COMMUNITY\VC\TOOLS\MSVC\14.15.26726\INCLUDE\YMATH.H
C:\PROGRAM FILES (X86)\MICROSOFT VISUAL STUDIO\2017\COMMUNITY\VC\TOOLS\MSVC\14.15.26726\INCLUDE\CFLOAT
C:\PROGRAM FILES (X86)\WINDOWS KITS\10\INCLUDE\10.0.17134.0\UCRT\FLOAT.H
C:\PROGRAM FILES (X86)\MICROSOFT VISUAL STUDIO\2017\COMMUNITY\VC\TOOLS\MSVC\14.15.26726\INCLUDE\CWCHAR
C:\PROGRAM FILES (X86)\WINDOWS KITS\10\INCLUDE\10.0.17134.0\UCRT\WCHAR.H
C:\PROGRAM FILES (X86)\WINDOWS KITS\10\INCLUDE\10.0.17134.0\UCRT\CORECRT_WCONIO.H
C:\PROGRAM FILES (X86)\WINDOWS KITS\10\INCLUDE\10.0.17134.0\UCRT\CORECRT_WCTYPE.H
C:\PROGRAM FILES (X86)\WINDOWS KITS\10\INCLUDE\10.0.17134.0\UCRT\CORECRT_WDIRECT.H
C:\PROGRAM FILES (X86)\WINDOWS KITS\10\INCLUDE\10.0.17134.0\UCRT\CORECRT_WIO.H
C:\PROGRAM FILES (X86)\WINDOWS KITS\10\INCLUDE\10.0.17134.0\UCRT\CORECRT_SHARE.H
C:\PROGRAM FILES (X86)\WINDOWS KITS\10\INCLUDE\10.0.17134.0\UCRT\CORECRT_WPROCESS.H
C:\PROGRAM FILES (X86)\WINDOWS KITS\10\INCLUDE\10.0.17134.0\UCRT\CORECRT_WTIME.H
C:\PROGRAM FILES (X86)\WINDOWS KITS\10\INCLUDE\10.0.17134.0\UCRT\SYS\STAT.H
C:\PROGRAM FILES (X86)\WINDOWS KITS\10\INCLUDE\10.0.17134.0\UCRT\SYS\TYPES.H
C:\PROGRAM FILES (X86)\MICROSOFT VISUAL STUDIO\2017\COMMUNITY\VC\TOOLS\MSVC\14.15.26726\INCLUDE\NEW
C:\PROGRAM FILES (X86)\MICROSOFT VISUAL STUDIO\2017\COMMUNITY\VC\TOOLS\MSVC\14.15.26726\INCLUDE\XUTILITY
C:\PROGRAM FILES (X86)\MICROSOFT VISUAL STUDIO\2017\COMMUNITY\VC\TOOLS\MSVC\14.15.26726\INCLUDE\UTILITY
C:\PROGRAM FILES (X86)\MICROSOFT VISUAL STUDIO\2017\COMMUNITY\VC\TOOLS\MSVC\14.15.26726\INCLUDE\IOSFWD
C:\PROGRAM FILES (X86)\MICROSOFT VISUAL STUDIO\2017\COMMUNITY\VC\TOOLS\MSVC\14.15.26726\INCLUDE\XATOMIC0.H
C:\PROGRAM FILES (X86)\MICROSOFT VISUAL STUDIO\2017\COMMUNITY\VC\TOOLS\MSVC\14.15.26726\INCLUDE\INTRIN0.H
C:\PROGRAM FILES (X86)\MICROSOFT VISUAL STUDIO\2017\COMMUNITY\VC\TOOLS\MSVC\14.15.26726\INCLUDE\TYPEINFO
C:\PROGRAM FILES (X86)\MICROSOFT VISUAL STUDIO\2017\COMMUNITY\VC\TOOLS\MSVC\14.15.26726\INCLUDE\VCRUNTIME_TYPEINFO.H
C:\PROGRAM FILES (X86)\MICROSOFT VISUAL STUDIO\2017\COMMUNITY\VC\TOOLS\MSVC\14.15.26726\INCLUDE\XLOCINFO
C:\PROGRAM FILES (X86)\MICROSOFT VISUAL STUDIO\2017\COMMUNITY\VC\TOOLS\MSVC\14.15.26726\INCLUDE\XLOCINFO.H
C:\PROGRAM FILES (X86)\WINDOWS KITS\10\INCLUDE\10.0.17134.0\UCRT\CTYPE.H
C:\PROGRAM FILES (X86)\WINDOWS KITS\10\INCLUDE\10.0.17134.0\UCRT\LOCALE.H
C:\PROGRAM FILES (X86)\MICROSOFT VISUAL STUDIO\2017\COMMUNITY\VC\TOOLS\MSVC\14.15.26726\INCLUDE\MEMORY
C:\PROGRAM FILES (X86)\MICROSOFT VISUAL STUDIO\2017\COMMUNITY\VC\TOOLS\MSVC\14.15.26726\INCLUDE\XMEMORY
C:\PROGRAM FILES (X86)\MICROSOFT VISUAL STUDIO\2017\COMMUNITY\VC\TOOLS\MSVC\14.15.26726\INCLUDE\XFACET
C:\PROGRAM FILES (X86)\MICROSOFT VISUAL STUDIO\2017\COMMUNITY\VC\TOOLS\MSVC\14.15.26726\INCLUDE\SYSTEM_ERROR
C:\PROGRAM FILES (X86)\MICROSOFT VISUAL STUDIO\2017\COMMUNITY\VC\TOOLS\MSVC\14.15.26726\INCLUDE\CERRNO
C:\PROGRAM FILES (X86)\MICROSOFT VISUAL STUDIO\2017\COMMUNITY\VC\TOOLS\MSVC\14.15.26726\INCLUDE\XCALL_ONCE.H
C:\PROGRAM FILES (X86)\MICROSOFT VISUAL STUDIO\2017\COMMUNITY\VC\TOOLS\MSVC\14.15.26726\INCLUDE\XERRC.H
C:\PROGRAM FILES (X86)\WINDOWS KITS\10\INCLUDE\10.0.17134.0\UCRT\SHARE.H
C:\PROGRAM FILES (X86)\MICROSOFT VISUAL STUDIO\2017\COMMUNITY\VC\TOOLS\MSVC\14.15.26726\INCLUDE\XSTRING_INSERT.H
C:\PROGRAM FILES (X86)\MICROSOFT VISUAL STUDIO\2017\COMMUNITY\VC\TOOLS\MSVC\14.15.26726\INCLUDE\VECTOR
E:\TERRAIN\EXTERNALS\GLM-0.9.1\GLM\GLM.HPP
E:\TERRAIN\EXTERNALS\GLM-0.9.1\GLM\CORE\_FIXES.HPP
E:\TERRAIN\EXTERNALS\GLM-0.9.1\GLM\CORE\SETUP.HPP
E:\TERRAIN\EXTERNALS\GLM-0.9.1\GLM\CORE\_DETAIL.HPP
C:\PROGRAM FILES (X86)\MICROSOFT VISUAL STUDIO\2017\COMMUNITY\VC\TOOLS\MSVC\14.15.26726\INCLUDE\CASSERT
C:\PROGRAM FILES (X86)\WINDOWS KITS\10\INCLUDE\10.0.17134.0\UCRT\ASSERT.H
E:\TERRAIN\EXTERNALS\GLM-0.9.1\GLM\CORE\TYPE.HPP
E:\TERRAIN\EXTERNALS\GLM-0.9.1\GLM\CORE\TYPE_HALF.HPP
E:\TERRAIN\EXTERNALS\GLM-0.9.1\GLM\CORE\TYPE_HALF.INL
E:\TERRAIN\EXTERNALS\GLM-0.9.1\GLM\CORE\TYPE_FLOAT.HPP
E:\TERRAIN\EXTERNALS\GLM-0.9.1\GLM\CORE\TYPE_INT.HPP
E:\TERRAIN\EXTERNALS\GLM-0.9.1\GLM\CORE\TYPE_GENTYPE.HPP
E:\TERRAIN\EXTERNALS\GLM-0.9.1\GLM\CORE\TYPE_SIZE.HPP
E:\TERRAIN\EXTERNALS\GLM-0.9.1\GLM\CORE\TYPE_VEC1.HPP
E:\TERRAIN\EXTERNALS\GLM-0.9.1\GLM\CORE\TYPE_VEC.HPP
E:\TERRAIN\EXTERNALS\GLM-0.9.1\GLM\CORE\_SWIZZLE.HPP
E:\TERRAIN\EXTERNALS\GLM-0.9.1\GLM\CORE\TYPE_VEC1.INL
E:\TERRAIN\EXTERNALS\GLM-0.9.1\GLM\CORE\TYPE_VEC2.HPP
E:\TERRAIN\EXTERNALS\GLM-0.9.1\GLM\CORE\TYPE_VEC2.INL
E:\TERRAIN\EXTERNALS\GLM-0.9.1\GLM\CORE\TYPE_VEC3.HPP
E:\TERRAIN\EXTERNALS\GLM-0.9.1\GLM\CORE\TYPE_VEC3.INL
E:\TERRAIN\EXTERNALS\GLM-0.9.1\GLM\CORE\TYPE_VEC4.HPP
E:\TERRAIN\EXTERNALS\GLM-0.9.1\GLM\CORE\TYPE_VEC4.INL
E:\TERRAIN\EXTERNALS\GLM-0.9.1\GLM\CORE\TYPE_MAT2X2.HPP
E:\TERRAIN\EXTERNALS\GLM-0.9.1\GLM\CORE\TYPE_MAT.HPP
E:\TERRAIN\EXTERNALS\GLM-0.9.1\GLM\CORE\TYPE_MAT2X2.INL
E:\TERRAIN\EXTERNALS\GLM-0.9.1\GLM\CORE\TYPE_MAT2X3.HPP
E:\TERRAIN\EXTERNALS\GLM-0.9.1\GLM\CORE\TYPE_MAT2X3.INL
E:\TERRAIN\EXTERNALS\GLM-0.9.1\GLM\CORE\TYPE_MAT2X4.HPP
E:\TERRAIN\EXTERNALS\GLM-0.9.1\GLM\CORE\TYPE_MAT2X4.INL
E:\TERRAIN\EXTERNALS\GLM-0.9.1\GLM\CORE\TYPE_MAT3X2.HPP
E:\TERRAIN\EXTERNALS\GLM-0.9.1\GLM\CORE\TYPE_MAT3X2.INL
E:\TERRAIN\EXTERNALS\GLM-0.9.1\GLM\CORE\TYPE_MAT3X3.HPP
E:\TERRAIN\EXTERNALS\GLM-0.9.1\GLM\CORE\TYPE_MAT3X3.INL
E:\TERRAIN\EXTERNALS\GLM-0.9.1\GLM\CORE\TYPE_MAT3X4.HPP
E:\TERRAIN\EXTERNALS\GLM-0.9.1\GLM\CORE\TYPE_MAT3X4.INL
E:\TERRAIN\EXTERNALS\GLM-0.9.1\GLM\CORE\TYPE_MAT4X2.HPP
E:\TERRAIN\EXTERNALS\GLM-0.9.1\GLM\CORE\TYPE_MAT4X2.INL
E:\TERRAIN\EXTERNALS\GLM-0.9.1\GLM\CORE\TYPE_MAT4X3.HPP
E:\TERRAIN\EXTERNALS\GLM-0.9.1\GLM\CORE\TYPE_MAT4X3.INL
E:\TERRAIN\EXTERNALS\GLM-0.9.1\GLM\CORE\TYPE_MAT4X4.HPP
E:\TERRAIN\EXTERNALS\GLM-0.9.1\GLM\CORE\TYPE_MAT4X4.INL
E:\TERRAIN\EXTERNALS\GLM-0.9.1\GLM\CORE\FUNC_TRIGONOMETRIC.HPP
E:\TERRAIN\EXTERNALS\GLM-0.9.1\GLM\CORE\FUNC_TRIGONOMETRIC.INL
E:\TERRAIN\EXTERNALS\GLM-0.9.1\GLM\CORE\FUNC_EXPONENTIAL.HPP
E:\TERRAIN\EXTERNALS\GLM-0.9.1\GLM\CORE\FUNC_EXPONENTIAL.INL
E:\TERRAIN\EXTERNALS\GLM-0.9.1\GLM\CORE\FUNC_COMMON.HPP
E:\TERRAIN\EXTERNALS\GLM-0.9.1\GLM\CORE\FUNC_COMMON.INL
E:\TERRAIN\EXTERNALS\GLM-0.9.1\GLM\CORE\FUNC_PACKING.HPP
E:\TERRAIN\EXTERNALS\GLM-0.9.1\GLM\CORE\FUNC_PACKING.INL
E:\TERRAIN\EXTERNALS\GLM-0.9.1\GLM\CORE\FUNC_GEOMETRIC.HPP
E:\TERRAIN\EXTERNALS\GLM-0.9.1\GLM\CORE\FUNC_GEOMETRIC.INL
E:\TERRAIN\EXTERNALS\GLM-0.9.1\GLM\CORE\FUNC_MATRIX.HPP
E:\TERRAIN\EXTERNALS\GLM-0.9.1\GLM\CORE\FUNC_MATRIX.INL
E:\TERRAIN\EXTERNALS\GLM-0.9.1\GLM\CORE\FUNC_VECTOR_RELATIONAL.HPP
E:\TERRAIN\EXTERNALS\GLM-0.9.1\GLM\CORE\FUNC_VECTOR_RELATIONAL.INL
E:\TERRAIN\EXTERNALS\GLM-0.9.1\GLM\CORE\FUNC_INTEGER.HPP
E:\TERRAIN\EXTERNALS\GLM-0.9.1\GLM\CORE\FUNC_INTEGER.INL
E:\TERRAIN\EXTERNALS\GLM-0.9.1\GLM\CORE\FUNC_NOISE.HPP
E:\TERRAIN\EXTERNALS\GLM-0.9.1\GLM\CORE\FUNC_NOISE.INL
E:\TERRAIN\EXTERNALS\GLEW-1.5.8\INCLUDE\GL\GLEW.H
C:\PROGRAM FILES (X86)\WINDOWS KITS\10\INCLUDE\10.0.17134.0\UM\GL\GLU.H
C:\PROGRAM FILES (X86)\WINDOWS KITS\10\INCLUDE\10.0.17134.0\SHARED\WINAPIFAMILY.H
C:\PROGRAM FILES (X86)\WINDOWS KITS\10\INCLUDE\10.0.17134.0\SHARED\WINPACKAGEFAMILY.H
C:\PROGRAM FILES (X86)\WINDOWS KITS\10\INCLUDE\10.0.17134.0\UM\GL\GL.H
E:\TERRAIN\EXTERNALS\GLM-0.9.1\GLM\GTX\STD_BASED_TYPE.HPP
E:\TERRAIN\EXTERNALS\GLM-0.9.1\GLM\GTX\STD_BASED_TYPE.INL
E:\TERRAIN\TERRAIN\INC\TERRAINCAMERA.H
E:\TERRAIN\TERRAIN\INC\CAMERA.H
E:\TERRAIN\EXTERNALS\GLM-0.9.1\GLM\GTC\QUATERNION.HPP
E:\TERRAIN\EXTERNALS\GLM-0.9.1\GLM\GTC\HALF_FLOAT.HPP
E:\TERRAIN\EXTERNALS\GLM-0.9.1\GLM\GTC\HALF_FLOAT.INL
E:\TERRAIN\EXTERNALS\GLM-0.9.1\GLM\GTC\QUATERNION.INL
E:\TERRAIN\EXTERNALS\GLM-0.9.1\GLM\GTC\MATRIX_TRANSFORM.HPP
E:\TERRAIN\EXTERNALS\GLM-0.9.1\GLM\GTC\MATRIX_TRANSFORM.INL
E:\TERRAIN\TERRAIN\INC\GL\GLUT.H
C:\PROGRAM FILES (X86)\MICROSOFT VISUAL STUDIO\2017\COMMUNITY\VC\TOOLS\MSVC\14.15.26726\INCLUDE\IOSTREAM
C:\PROGRAM FILES (X86)\MICROSOFT VISUAL STUDIO\2017\COMMUNITY\VC\TOOLS\MSVC\14.15.26726\INCLUDE\ALGORITHM
C:\PROGRAM FILES (X86)\MICROSOFT VISUAL STUDIO\2017\COMMUNITY\VC\TOOLS\MSVC\14.15.26726\BIN\HOSTX86\X86\MSPDBSRV.EXE
